Security,ARSUSD CMPN Curncy                                              
Start Date,5/1/08 0:00
End Date,5/29/18 0:00
Period,D
Pricing Source,CMPN
,
Date,PX_LAST
#NAME?,0.0401
5/28/2018,0.0404
5/24/2018,0.0407
5/23/2018,0.0409
5/22/2018,0.0412
5/21/2018,0.041
5/18/2018,0.041
5/17/2018,0.0411
5/16/2018,0.0412
5/15/2018,0.0416
5/14/2018,0.04
5/11/2018,0.0435
5/10/2018,0.0441
5/9/2018,0.0441
5/8/2018,0.0445
5/7/2018,0.0456
5/4/2018,0.0458
5/3/2018,0.0449
5/2/2018,0.0472
4/27/2018,0.0487
4/26/2018,0.0487
4/25/2018,0.0494
4/24/2018,0.0494
4/23/2018,0.0494
4/20/2018,0.0495
4/19/2018,0.0496
4/18/2018,0.0497
4/17/2018,0.0496
4/16/2018,0.0495
4/13/2018,0.0495
4/12/2018,0.0495
4/11/2018,0.0496
4/10/2018,0.0496
4/9/2018,0.0495
4/6/2018,0.0496
4/5/2018,0.0495
4/4/2018,0.0496
4/3/2018,0.0496
3/28/2018,0.0496
3/27/2018,0.0496
3/26/2018,0.0496
3/23/2018,0.0495
3/22/2018,0.0495
3/21/2018,0.0493
3/20/2018,0.0494
3/19/2018,0.0495
3/16/2018,0.0495
3/15/2018,0.0492
3/14/2018,0.0494
3/13/2018,0.0495
3/12/2018,0.0495
3/9/2018,0.0494
3/8/2018,0.0492
3/7/2018,0.0491
3/6/2018,0.0492
3/5/2018,0.0495
3/2/2018,0.0494
3/1/2018,0.0496
2/28/2018,0.0497
2/27/2018,0.0495
2/26/2018,0.0496
2/23/2018,0.0501
2/22/2018,0.0501
2/21/2018,0.0502
2/20/2018,0.0504
2/19/2018,0.0503
2/16/2018,0.0506
2/15/2018,0.0509
2/14/2018,0.0503
2/9/2018,0.05
2/8/2018,0.05
2/7/2018,0.0508
2/6/2018,0.0511
2/5/2018,0.0514
2/2/2018,0.0514
2/1/2018,0.0517
1/31/2018,0.0509
1/30/2018,0.0509
1/29/2018,0.0511
1/26/2018,0.0511
1/25/2018,0.0511
1/24/2018,0.0509
1/23/2018,0.0517
1/22/2018,0.0523
1/19/2018,0.0527
1/18/2018,0.053
1/17/2018,0.053
1/16/2018,0.053
1/15/2018,0.0534
1/12/2018,0.0536
1/11/2018,0.0535
1/10/2018,0.0536
1/9/2018,0.0528
1/8/2018,0.0525
1/5/2018,0.053
1/4/2018,0.0537
1/3/2018,0.0542
1/2/2018,0.0544
12/29/2017,0.0537
12/28/2017,0.0521
12/27/2017,0.0542
12/26/2017,0.0546
12/22/2017,0.0554
12/21/2017,0.0558
12/20/2017,0.0564
12/19/2017,0.0568
12/18/2017,0.0569
12/15/2017,0.0571
12/14/2017,0.0574
12/13/2017,0.0578
12/12/2017,0.0577
12/11/2017,0.058
12/7/2017,0.0579
12/6/2017,0.058
12/5/2017,0.0578
12/4/2017,0.0577
12/1/2017,0.0581
11/30/2017,0.0578
11/29/2017,0.0574
11/28/2017,0.0576
11/27/2017,0.0578
11/24/2017,0.0577
11/23/2017,0.0575
11/22/2017,0.0574
11/21/2017,0.0572
11/17/2017,0.0572
11/16/2017,0.0572
11/15/2017,0.0571
11/14/2017,0.0572
11/13/2017,0.0572
11/10/2017,0.0572
11/9/2017,0.0571
11/8/2017,0.0571
11/7/2017,0.0567
11/3/2017,0.0567
11/2/2017,0.0571
11/1/2017,0.0568
10/31/2017,0.0567
10/30/2017,0.0565
10/27/2017,0.0568
10/26/2017,0.0567
10/25/2017,0.0572
10/24/2017,0.0571
10/23/2017,0.0574
10/20/2017,0.0574
10/19/2017,0.0573
10/18/2017,0.0577
10/17/2017,0.0577
10/13/2017,0.0577
10/12/2017,0.0574
10/11/2017,0.0574
10/10/2017,0.0574
10/9/2017,0.0573
10/6/2017,0.0574
10/5/2017,0.0575
10/4/2017,0.0576
10/3/2017,0.0575
10/2/2017,0.0576
9/29/2017,0.0578
9/28/2017,0.0571
9/27/2017,0.0569
9/26/2017,0.0569
9/25/2017,0.0572
9/22/2017,0.0578
9/21/2017,0.0579
9/20/2017,0.0582
9/19/2017,0.0585
9/18/2017,0.0585
9/15/2017,0.0589
9/14/2017,0.0589
9/13/2017,0.0586
9/12/2017,0.0587
9/11/2017,0.0584
9/8/2017,0.058
9/7/2017,0.058
9/6/2017,0.058
9/5/2017,0.058
9/4/2017,0.058
9/1/2017,0.0581
8/31/2017,0.0577
8/30/2017,0.0575
8/29/2017,0.0575
8/28/2017,0.058
8/25/2017,0.0581
8/24/2017,0.0581
8/23/2017,0.0581
8/22/2017,0.0581
8/18/2017,0.0577
8/17/2017,0.0576
8/16/2017,0.0581
8/15/2017,0.0586
8/14/2017,0.0584
8/11/2017,0.0565
8/10/2017,0.0565
8/9/2017,0.0565
8/8/2017,0.0565
8/7/2017,0.0565
8/4/2017,0.0566
8/3/2017,0.0566
8/2/2017,0.0569
8/1/2017,0.0569
7/31/2017,0.0567
7/28/2017,0.0562
7/27/2017,0.0567
7/26/2017,0.0571
7/25/2017,0.0572
7/24/2017,0.0573
7/21/2017,0.0575
7/20/2017,0.0581
7/19/2017,0.0583
7/18/2017,0.0585
7/17/2017,0.0591
7/14/2017,0.0594
7/13/2017,0.059
7/12/2017,0.059
7/11/2017,0.0588
7/10/2017,0.0589
7/7/2017,0.0589
7/6/2017,0.0585
7/5/2017,0.0583
7/4/2017,0.0592
7/3/2017,0.0593
6/30/2017,0.0602
6/29/2017,0.0606
6/28/2017,0.0609
6/27/2017,0.061
6/26/2017,0.0613
6/23/2017,0.0618
6/22/2017,0.0619
6/21/2017,0.0616
6/19/2017,0.0619
6/16/2017,0.0624
6/15/2017,0.0626
6/14/2017,0.0629
6/13/2017,0.063
6/12/2017,0.0628
6/9/2017,0.0628
6/8/2017,0.0628
6/7/2017,0.0625
6/6/2017,0.0624
6/5/2017,0.0624
6/2/2017,0.0623
6/1/2017,0.0623
5/31/2017,0.0621
5/30/2017,0.0618
5/29/2017,0.0626
5/26/2017,0.0625
5/24/2017,0.0622
5/23/2017,0.0621
5/22/2017,0.0618
5/19/2017,0.0624
5/18/2017,0.0625
5/17/2017,0.064
5/16/2017,0.0642
5/15/2017,0.0644
5/12/2017,0.0648
5/11/2017,0.0647
5/10/2017,0.0645
5/9/2017,0.0645
5/8/2017,0.0646
5/5/2017,0.0651
5/4/2017,0.0652
5/3/2017,0.0654
5/2/2017,0.0654
4/28/2017,0.065
4/27/2017,0.0649
4/26/2017,0.0646
4/25/2017,0.0649
4/24/2017,0.065
4/21/2017,0.0646
4/20/2017,0.065
4/19/2017,0.065
4/18/2017,0.0654
4/17/2017,0.0661
4/13/2017,0.0659
4/12/2017,0.0658
4/11/2017,0.0656
4/10/2017,0.0657
4/7/2017,0.0652
4/6/2017,0.0649
4/5/2017,0.065
4/4/2017,0.065
4/3/2017,0.065
3/31/2017,0.065
3/30/2017,0.0648
3/29/2017,0.0648
3/28/2017,0.0642
3/27/2017,0.0641
3/23/2017,0.064
3/22/2017,0.064
3/21/2017,0.0641
3/20/2017,0.064
3/17/2017,0.0643
3/16/2017,0.0643
3/15/2017,0.0642
3/14/2017,0.0644
3/13/2017,0.0644
3/10/2017,0.0646
3/9/2017,0.0644
3/8/2017,0.0639
3/7/2017,0.0642
3/6/2017,0.0646
3/3/2017,0.0648
3/2/2017,0.0649
3/1/2017,0.0647
2/24/2017,0.0646
2/23/2017,0.0645
2/22/2017,0.0642
2/21/2017,0.0641
2/20/2017,0.0637
2/17/2017,0.0639
2/16/2017,0.0648
2/15/2017,0.0651
2/14/2017,0.0646
2/13/2017,0.0646
2/10/2017,0.0644
2/9/2017,0.0639
2/8/2017,0.0638
2/7/2017,0.0638
2/6/2017,0.0634
2/3/2017,0.064
2/2/2017,0.0638
2/1/2017,0.0633
1/31/2017,0.0629
1/30/2017,0.0629
1/27/2017,0.0629
1/26/2017,0.0627
1/25/2017,0.0627
1/24/2017,0.0628
1/23/2017,0.0627
1/20/2017,0.0629
1/19/2017,0.0629
1/18/2017,0.0626
1/17/2017,0.0629
1/16/2017,0.063
1/13/2017,0.0631
1/12/2017,0.0632
1/11/2017,0.0631
1/10/2017,0.0631
1/9/2017,0.063
1/6/2017,0.0632
1/5/2017,0.0627
1/4/2017,0.0622
1/3/2017,0.0627
1/2/2017,0.0631
12/30/2016,0.063
12/29/2016,0.0628
12/28/2016,0.0637
12/27/2016,0.0643
12/26/2016,0.0637
12/23/2016,0.0646
12/22/2016,0.0636
12/21/2016,0.0634
12/20/2016,0.063
12/19/2016,0.063
12/16/2016,0.063
12/15/2016,0.0627
12/14/2016,0.0626
12/13/2016,0.0626
12/12/2016,0.0624
12/7/2016,0.0625
12/6/2016,0.0628
12/5/2016,0.063
12/2/2016,0.0627
12/1/2016,0.0633
11/30/2016,0.063
11/29/2016,0.0637
11/25/2016,0.0643
11/24/2016,0.0644
11/23/2016,0.0643
11/22/2016,0.0648
11/21/2016,0.065
11/18/2016,0.0646
11/17/2016,0.0645
11/16/2016,0.0645
11/15/2016,0.0646
11/14/2016,0.0641
11/11/2016,0.0654
11/10/2016,0.0665
11/9/2016,0.0669
11/8/2016,0.0669
11/7/2016,0.0663
11/4/2016,0.0663
11/3/2016,0.0664
11/2/2016,0.0662
11/1/2016,0.0663
10/31/2016,0.0659
10/28/2016,0.0659
10/27/2016,0.0659
10/26/2016,0.0658
10/25/2016,0.0657
10/24/2016,0.0659
10/21/2016,0.0659
10/20/2016,0.0658
10/19/2016,0.0659
10/18/2016,0.0658
10/17/2016,0.0658
10/14/2016,0.0659
10/13/2016,0.0661
10/12/2016,0.0664
10/11/2016,0.0659
10/7/2016,0.0658
10/6/2016,0.0658
10/5/2016,0.0659
10/4/2016,0.066
10/3/2016,0.0658
9/30/2016,0.0651
9/29/2016,0.0651
9/28/2016,0.0651
9/27/2016,0.0655
9/26/2016,0.0657
9/23/2016,0.066
9/22/2016,0.066
9/21/2016,0.066
9/20/2016,0.0661
9/19/2016,0.066
9/16/2016,0.0661
9/15/2016,0.0664
9/14/2016,0.0666
9/13/2016,0.0667
9/12/2016,0.067
9/9/2016,0.0662
9/8/2016,0.0664
9/7/2016,0.0665
9/6/2016,0.0666
9/5/2016,0.0667
9/2/2016,0.0667
9/1/2016,0.067
8/31/2016,0.067
8/30/2016,0.0666
8/29/2016,0.0663
8/26/2016,0.0667
8/25/2016,0.0673
8/24/2016,0.0673
8/23/2016,0.0674
8/22/2016,0.0674
8/19/2016,0.067
8/18/2016,0.067
8/17/2016,0.0677
8/16/2016,0.0681
8/12/2016,0.0682
8/11/2016,0.0682
8/10/2016,0.0682
8/9/2016,0.0677
8/8/2016,0.0682
8/5/2016,0.0676
8/4/2016,0.0674
8/3/2016,0.067
8/2/2016,0.0673
8/1/2016,0.0668
7/29/2016,0.0667
7/28/2016,0.0665
7/27/2016,0.0667
7/26/2016,0.0669
7/25/2016,0.0669
7/22/2016,0.0671
7/21/2016,0.0666
7/20/2016,0.0663
7/19/2016,0.0667
7/18/2016,0.066
7/15/2016,0.067
7/14/2016,0.0679
7/13/2016,0.0686
7/12/2016,0.0686
7/11/2016,0.068
7/7/2016,0.068
7/6/2016,0.068
7/5/2016,0.0672
7/4/2016,0.0666
7/1/2016,0.0664
6/30/2016,0.0665
6/29/2016,0.0668
6/28/2016,0.0671
6/27/2016,0.0654
6/24/2016,0.0669
6/23/2016,0.0695
6/22/2016,0.0711
6/21/2016,0.0717
6/16/2016,0.0719
6/15/2016,0.0728
6/14/2016,0.0728
6/13/2016,0.0725
6/10/2016,0.0724
6/9/2016,0.0724
6/8/2016,0.072
6/7/2016,0.0723
6/6/2016,0.0726
6/3/2016,0.0719
6/2/2016,0.0719
6/1/2016,0.0715
5/31/2016,0.0715
5/30/2016,0.0716
5/27/2016,0.0719
5/26/2016,0.0714
5/24/2016,0.0712
5/23/2016,0.0715
5/20/2016,0.071
5/19/2016,0.071
5/18/2016,0.0708
5/17/2016,0.0707
5/16/2016,0.0706
5/13/2016,0.0707
5/12/2016,0.0706
5/11/2016,0.0704
5/10/2016,0.0703
5/9/2016,0.0703
5/6/2016,0.0703
5/5/2016,0.0702
5/4/2016,0.0702
5/3/2016,0.0704
5/2/2016,0.0705
4/29/2016,0.07
4/28/2016,0.0698
4/27/2016,0.0704
4/26/2016,0.0698
4/25/2016,0.0699
4/22/2016,0.0698
4/21/2016,0.07
4/20/2016,0.0697
4/19/2016,0.0706
4/18/2016,0.0707
4/15/2016,0.0712
4/14/2016,0.0698
4/13/2016,0.0695
4/12/2016,0.0689
4/11/2016,0.0689
4/8/2016,0.0691
4/7/2016,0.0691
4/6/2016,0.0685
4/5/2016,0.0681
4/4/2016,0.0679
4/1/2016,0.0676
3/31/2016,0.068
3/30/2016,0.0685
3/29/2016,0.0683
3/28/2016,0.0692
3/23/2016,0.0691
3/22/2016,0.0695
3/21/2016,0.0691
3/18/2016,0.0677
3/17/2016,0.067
3/16/2016,0.0685
3/15/2016,0.0689
3/14/2016,0.0676
3/11/2016,0.0673
3/10/2016,0.0652
3/9/2016,0.0651
3/8/2016,0.0647
3/7/2016,0.065
3/4/2016,0.0658
3/3/2016,0.0657
3/2/2016,0.0639
3/1/2016,0.0633
2/29/2016,0.0632
2/26/2016,0.0647
2/25/2016,0.0648
2/24/2016,0.0652
2/23/2016,0.0652
2/22/2016,0.0655
2/19/2016,0.0664
2/18/2016,0.0666
2/17/2016,0.067
2/16/2016,0.0676
2/15/2016,0.0675
2/12/2016,0.0676
2/11/2016,0.0686
2/10/2016,0.071
2/5/2016,0.0696
2/4/2016,0.0706
2/3/2016,0.0707
2/2/2016,0.0708
2/1/2016,0.0709
1/29/2016,0.072
1/28/2016,0.0723
1/27/2016,0.0723
1/26/2016,0.0724
1/25/2016,0.0727
1/22/2016,0.073
1/21/2016,0.074
1/20/2016,0.0745
1/19/2016,0.0742
1/18/2016,0.0739
1/15/2016,0.0745
1/14/2016,0.0755
1/13/2016,0.0739
1/12/2016,0.0742
1/11/2016,0.073
1/8/2016,0.072
1/7/2016,0.072
1/6/2016,0.0722
1/5/2016,0.0733
1/4/2016,0.0758
12/31/2015,0.0773
12/30/2015,0.0772
12/29/2015,0.0773
12/28/2015,0.0772
12/24/2015,0.0762
12/23/2015,0.0771
12/22/2015,0.0773
12/21/2015,0.0781
12/18/2015,0.0761
12/17/2015,0.0751
12/16/2015,0.1019
12/15/2015,0.1022
12/14/2015,0.1023
12/11/2015,0.1024
12/10/2015,0.1026
12/9/2015,0.1028
12/8/2015,0.1031
12/7/2015,0.103
12/4/2015,0.1029
12/3/2015,0.1032
12/2/2015,0.1032
12/1/2015,0.1033
11/30/2015,0.1035
11/26/2015,0.1035
11/25/2015,0.1038
11/24/2015,0.1035
11/23/2015,0.1037
11/20/2015,0.1037
11/19/2015,0.1036
11/18/2015,0.1038
11/17/2015,0.1038
11/16/2015,0.1039
11/13/2015,0.104
11/12/2015,0.1042
11/11/2015,0.1044
11/10/2015,0.1043
11/9/2015,0.1044
11/5/2015,0.1044
11/4/2015,0.1049
11/3/2015,0.1048
11/2/2015,0.1049
10/30/2015,0.1051
10/29/2015,0.105
10/28/2015,0.1049
10/27/2015,0.1051
10/26/2015,0.105
10/23/2015,0.1051
10/22/2015,0.1051
10/21/2015,0.1051
10/20/2015,0.1057
10/19/2015,0.1053
10/16/2015,0.1053
10/15/2015,0.1055
10/14/2015,0.1057
10/13/2015,0.1056
10/9/2015,0.1058
10/8/2015,0.1063
10/7/2015,0.1058
10/6/2015,0.1058
10/5/2015,0.1059
10/2/2015,0.1059
10/1/2015,0.1061
9/30/2015,0.1061
9/29/2015,0.1061
9/28/2015,0.1062
9/25/2015,0.1063
9/24/2015,0.1064
9/23/2015,0.1064
9/22/2015,0.1065
9/21/2015,0.1064
9/18/2015,0.1065
9/17/2015,0.1066
9/16/2015,0.1066
9/15/2015,0.1067
9/14/2015,0.1069
9/11/2015,0.1069
9/10/2015,0.1069
9/9/2015,0.107
9/8/2015,0.1072
9/7/2015,0.1074
9/4/2015,0.1071
9/3/2015,0.1073
9/2/2015,0.1074
9/1/2015,0.1074
8/31/2015,0.1075
8/28/2015,0.1076
8/27/2015,0.1077
8/26/2015,0.1077
8/25/2015,0.1078
8/24/2015,0.1079
8/21/2015,0.108
8/20/2015,0.108
8/19/2015,0.1079
8/18/2015,0.1081
8/14/2015,0.1082
8/13/2015,0.1083
8/12/2015,0.1083
8/11/2015,0.1084
8/10/2015,0.1085
8/7/2015,0.1083
8/6/2015,0.1086
8/5/2015,0.1086
8/4/2015,0.1087
8/3/2015,0.1086
7/31/2015,0.1087
7/30/2015,0.1088
7/29/2015,0.1089
7/28/2015,0.109
7/27/2015,0.1089
7/24/2015,0.1089
7/23/2015,0.109
7/22/2015,0.1091
7/21/2015,0.109
7/20/2015,0.1091
7/17/2015,0.1095
7/16/2015,0.1095
7/15/2015,0.1095
7/14/2015,0.1095
7/13/2015,0.1096
7/10/2015,0.1095
7/8/2015,0.1097
7/7/2015,0.1098
7/6/2015,0.1097
7/3/2015,0.1099
7/2/2015,0.1098
7/1/2015,0.1099
6/30/2015,0.1099
6/29/2015,0.11
6/26/2015,0.11
6/25/2015,0.11
6/24/2015,0.1103
6/23/2015,0.1104
6/22/2015,0.1103
6/19/2015,0.1105
6/18/2015,0.1104
6/17/2015,0.1102
6/16/2015,0.1104
6/15/2015,0.1106
6/12/2015,0.1106
6/11/2015,0.1107
6/10/2015,0.1107
6/9/2015,0.1108
6/8/2015,0.1108
6/5/2015,0.1107
6/4/2015,0.1109
6/3/2015,0.111
6/2/2015,0.111
6/1/2015,0.111
5/29/2015,0.1111
5/28/2015,0.1111
5/27/2015,0.1113
5/26/2015,0.1114
5/22/2015,0.1113
5/21/2015,0.1114
5/20/2015,0.1115
5/19/2015,0.1118
5/18/2015,0.1117
5/15/2015,0.1117
5/14/2015,0.1117
5/13/2015,0.1117
5/12/2015,0.1119
5/11/2015,0.1118
5/8/2015,0.1119
5/7/2015,0.1121
5/6/2015,0.112
5/5/2015,0.1123
5/4/2015,0.1123
4/30/2015,0.1123
4/29/2015,0.1124
4/28/2015,0.1123
4/27/2015,0.1123
4/24/2015,0.1124
4/23/2015,0.1124
4/22/2015,0.1127
4/21/2015,0.1127
4/20/2015,0.1128
4/17/2015,0.1126
4/16/2015,0.1126
4/15/2015,0.1128
4/14/2015,0.1129
4/13/2015,0.1129
4/10/2015,0.113
4/9/2015,0.1131
4/8/2015,0.1131
4/7/2015,0.1131
4/6/2015,0.1132
4/1/2015,0.1132
3/31/2015,0.1134
3/30/2015,0.1134
3/27/2015,0.1135
3/26/2015,0.1135
3/25/2015,0.1136
3/20/2015,0.1137
3/19/2015,0.1137
3/18/2015,0.1138
3/17/2015,0.1138
3/16/2015,0.1139
3/13/2015,0.1138
3/12/2015,0.1139
3/11/2015,0.1139
3/10/2015,0.114
3/9/2015,0.1141
3/6/2015,0.1142
3/5/2015,0.1143
3/4/2015,0.1144
3/3/2015,0.1144
3/2/2015,0.1145
2/27/2015,0.1146
2/26/2015,0.1146
2/25/2015,0.1147
2/24/2015,0.115
2/23/2015,0.1149
2/20/2015,0.1149
2/19/2015,0.115
2/18/2015,0.1151
2/13/2015,0.1152
2/12/2015,0.1153
2/11/2015,0.1153
2/10/2015,0.1154
2/9/2015,0.1154
2/6/2015,0.1155
2/5/2015,0.1156
2/4/2015,0.1156
2/3/2015,0.1156
2/2/2015,0.1156
1/30/2015,0.1159
1/29/2015,0.1159
1/28/2015,0.1159
1/27/2015,0.1159
1/26/2015,0.1159
1/23/2015,0.116
1/22/2015,0.116
1/21/2015,0.1161
1/20/2015,0.1161
1/19/2015,0.1162
1/16/2015,0.1162
1/15/2015,0.1163
1/14/2015,0.1164
1/13/2015,0.1164
1/12/2015,0.1164
1/9/2015,0.1164
1/8/2015,0.1164
1/7/2015,0.1166
1/6/2015,0.117
1/5/2015,0.1169
1/2/2015,0.1169
12/31/2014,0.1181
12/30/2014,0.1178
12/29/2014,0.1169
12/24/2014,0.117
12/23/2014,0.1169
12/22/2014,0.1169
12/19/2014,0.1169
12/18/2014,0.1169
12/17/2014,0.1169
12/16/2014,0.117
12/15/2014,0.1169
12/12/2014,0.1169
12/11/2014,0.1169
12/10/2014,0.117
12/9/2014,0.1169
12/5/2014,0.1171
12/4/2014,0.117
12/3/2014,0.117
12/2/2014,0.1172
12/1/2014,0.1172
11/28/2014,0.1173
11/27/2014,0.1174
11/26/2014,0.1173
11/25/2014,0.1174
11/21/2014,0.1174
11/20/2014,0.1174
11/19/2014,0.1174
11/18/2014,0.1175
11/17/2014,0.1175
11/14/2014,0.1176
11/13/2014,0.1175
11/12/2014,0.1175
11/11/2014,0.1175
11/10/2014,0.1175
11/7/2014,0.1175
11/6/2014,0.1176
11/5/2014,0.1176
11/4/2014,0.1176
11/3/2014,0.1175
10/31/2014,0.1176
10/30/2014,0.1176
10/29/2014,0.1176
10/28/2014,0.1177
10/27/2014,0.1177
10/24/2014,0.1179
10/23/2014,0.1178
10/22/2014,0.1178
10/21/2014,0.1178
10/20/2014,0.118
10/17/2014,0.118
10/16/2014,0.118
10/15/2014,0.118
10/14/2014,0.118
10/10/2014,0.118
10/9/2014,0.1181
10/8/2014,0.1182
10/7/2014,0.1183
10/6/2014,0.1181
10/3/2014,0.1184
10/2/2014,0.1185
10/1/2014,0.1183
9/30/2014,0.1186
9/29/2014,0.1179
9/26/2014,0.1184
9/25/2014,0.1188
9/24/2014,0.1188
9/23/2014,0.1187
9/22/2014,0.1186
9/19/2014,0.1188
9/18/2014,0.1191
9/17/2014,0.119
9/16/2014,0.119
9/15/2014,0.119
9/12/2014,0.119
9/11/2014,0.119
9/10/2014,0.119
9/9/2014,0.119
9/8/2014,0.119
9/5/2014,0.1188
9/4/2014,0.119
9/3/2014,0.1188
9/2/2014,0.119
9/1/2014,0.119
8/29/2014,0.119
8/28/2014,0.119
8/27/2014,0.119
8/26/2014,0.1192
8/25/2014,0.1192
8/22/2014,0.1192
8/21/2014,0.1191
8/20/2014,0.1201
8/19/2014,0.1207
8/15/2014,0.1208
8/14/2014,0.1208
8/13/2014,0.1209
8/12/2014,0.121
8/11/2014,0.121
8/8/2014,0.121
8/7/2014,0.121
8/6/2014,0.121
8/5/2014,0.121
8/4/2014,0.121
8/1/2014,0.1214
7/31/2014,0.1218
7/30/2014,0.1222
7/29/2014,0.1222
7/28/2014,0.1223
7/25/2014,0.1224
7/24/2014,0.1224
7/23/2014,0.1224
7/22/2014,0.1224
7/21/2014,0.1225
7/18/2014,0.1227
7/17/2014,0.1227
7/16/2014,0.1227
7/15/2014,0.1227
7/14/2014,0.1227
7/11/2014,0.1227
7/10/2014,0.1228
7/8/2014,0.1228
7/7/2014,0.1229
7/4/2014,0.1229
7/3/2014,0.1229
7/2/2014,0.1229
7/1/2014,0.123
6/30/2014,0.123
6/27/2014,0.123
6/26/2014,0.123
6/25/2014,0.123
6/24/2014,0.123
6/23/2014,0.1229
6/19/2014,0.123
6/18/2014,0.123
6/17/2014,0.123
6/16/2014,0.123
6/13/2014,0.123
6/12/2014,0.123
6/11/2014,0.123
6/10/2014,0.123
6/9/2014,0.123
6/6/2014,0.1228
6/5/2014,0.1231
6/4/2014,0.1234
6/3/2014,0.1236
6/2/2014,0.1238
5/30/2014,0.1238
5/29/2014,0.1238
5/28/2014,0.1239
5/27/2014,0.124
5/26/2014,0.124
5/23/2014,0.124
5/22/2014,0.1241
5/21/2014,0.1241
5/20/2014,0.1241
5/19/2014,0.1241
5/16/2014,0.1241
5/15/2014,0.1241
5/14/2014,0.1245
5/13/2014,0.1247
5/12/2014,0.1248
5/9/2014,0.1249
5/8/2014,0.125
5/7/2014,0.125
5/6/2014,0.125
5/5/2014,0.125
4/30/2014,0.125
4/29/2014,0.125
4/28/2014,0.125
4/25/2014,0.125
4/24/2014,0.125
4/23/2014,0.125
4/22/2014,0.125
4/21/2014,0.1245
4/16/2014,0.125
4/15/2014,0.125
4/14/2014,0.125
4/11/2014,0.125
4/10/2014,0.125
4/9/2014,0.125
4/8/2014,0.125
4/7/2014,0.1305
4/4/2014,0.125
4/3/2014,0.1249
4/1/2014,0.125
3/31/2014,0.125
3/28/2014,0.1249
3/27/2014,0.1249
3/26/2014,0.1249
3/25/2014,0.1249
3/21/2014,0.1255
3/20/2014,0.1258
3/19/2014,0.1258
3/18/2014,0.1258
3/17/2014,0.1263
3/14/2014,0.1267
3/13/2014,0.1269
3/12/2014,0.1269
3/11/2014,0.1272
3/10/2014,0.1272
3/7/2014,0.1272
3/6/2014,0.1268
3/5/2014,0.1268
2/28/2014,0.1271
2/27/2014,0.1268
2/26/2014,0.1269
2/25/2014,0.1271
2/24/2014,0.1273
2/21/2014,0.1275
2/20/2014,0.1279
2/19/2014,0.1285
2/18/2014,0.1288
2/17/2014,0.1289
2/14/2014,0.1289
2/13/2014,0.1281
2/12/2014,0.1281
2/11/2014,0.128
2/10/2014,0.1279
2/7/2014,0.1277
2/6/2014,0.127
2/5/2014,0.1265
2/4/2014,0.1249
2/3/2014,0.1249
1/31/2014,0.1248
1/30/2014,0.1247
1/29/2014,0.1249
1/28/2014,0.1248
1/27/2014,0.125
1/24/2014,0.1248
1/23/2014,0.1262
1/22/2014,0.1443
1/21/2014,0.1453
1/20/2014,0.1465
1/17/2014,0.1472
1/16/2014,0.1477
1/15/2014,0.1491
1/14/2014,0.1491
1/13/2014,0.1494
1/10/2014,0.1502
1/9/2014,0.1509
1/8/2014,0.1514
1/7/2014,0.1515
1/6/2014,0.1517
1/3/2014,0.1526
1/2/2014,0.1528
12/30/2013,0.1534
12/27/2013,0.1541
12/26/2013,0.1554
12/23/2013,0.1553
12/20/2013,0.1557
12/19/2013,0.1563
12/18/2013,0.1569
12/17/2013,0.158
12/16/2013,0.1584
12/13/2013,0.159
12/12/2013,0.1593
12/11/2013,0.1593
12/10/2013,0.1597
12/9/2013,0.16
12/6/2013,0.1603
12/5/2013,0.1607
12/4/2013,0.1614
12/3/2013,0.1619
12/2/2013,0.1624
11/29/2013,0.1629
11/28/2013,0.1633
11/27/2013,0.1637
11/26/2013,0.1641
11/22/2013,0.1645
11/21/2013,0.1651
11/20/2013,0.1654
11/19/2013,0.1657
11/18/2013,0.1666
11/15/2013,0.1668
11/14/2013,0.167
11/13/2013,0.1673
11/12/2013,0.1675
11/11/2013,0.1675
11/8/2013,0.1676
11/7/2013,0.1683
11/5/2013,0.1679
11/4/2013,0.1683
11/1/2013,0.1686
10/31/2013,0.1693
10/30/2013,0.1693
10/29/2013,0.1697
10/28/2013,0.1698
10/25/2013,0.17
10/24/2013,0.1704
10/23/2013,0.1706
10/22/2013,0.1709
10/21/2013,0.1709
10/18/2013,0.1709
10/17/2013,0.1709
10/16/2013,0.1713
10/15/2013,0.1713
10/11/2013,0.1715
10/10/2013,0.1716
10/9/2013,0.1718
10/8/2013,0.1718
10/7/2013,0.1719
10/4/2013,0.172
10/3/2013,0.172
10/2/2013,0.1724
10/1/2013,0.1724
9/30/2013,0.1727
9/27/2013,0.1726
9/26/2013,0.173
9/25/2013,0.1733
9/24/2013,0.1732
9/23/2013,0.1733
9/20/2013,0.1736
9/19/2013,0.1737
9/18/2013,0.1738
9/17/2013,0.1741
9/16/2013,0.1745
9/13/2013,0.1746
9/12/2013,0.1748
9/11/2013,0.1748
9/10/2013,0.1751
9/9/2013,0.1753
9/6/2013,0.1754
9/5/2013,0.1755
9/4/2013,0.1754
9/3/2013,0.1757
9/2/2013,0.1763
8/30/2013,0.1763
8/29/2013,0.1767
8/28/2013,0.177
8/27/2013,0.1772
8/26/2013,0.1776
8/23/2013,0.1778
8/22/2013,0.1781
8/21/2013,0.1786
8/20/2013,0.1787
8/16/2013,0.1789
8/15/2013,0.1792
8/14/2013,0.1797
8/13/2013,0.1798
8/12/2013,0.1801
8/9/2013,0.1806
8/8/2013,0.1805
8/7/2013,0.1809
8/6/2013,0.181
8/5/2013,0.1811
8/2/2013,0.1813
8/1/2013,0.1815
7/31/2013,0.1816
7/30/2013,0.1819
7/29/2013,0.1822
7/26/2013,0.1825
7/25/2013,0.1825
7/24/2013,0.1831
7/23/2013,0.1831
7/22/2013,0.1831
7/19/2013,0.1831
7/18/2013,0.1835
7/17/2013,0.1839
7/16/2013,0.184
7/15/2013,0.1842
7/12/2013,0.1844
7/11/2013,0.1846
7/10/2013,0.1847
7/9/2013,0.1849
7/8/2013,0.1849
7/5/2013,0.1851
7/4/2013,0.1853
7/3/2013,0.1853
7/2/2013,0.1855
7/1/2013,0.1855
6/28/2013,0.1856
6/27/2013,0.186
6/26/2013,0.1863
6/25/2013,0.1865
6/24/2013,0.1866
6/19/2013,0.1869
6/18/2013,0.1873
6/17/2013,0.1874
6/14/2013,0.1876
6/13/2013,0.1878
6/12/2013,0.188
6/11/2013,0.1883
6/10/2013,0.1885
6/7/2013,0.1886
6/6/2013,0.1886
6/5/2013,0.1891
6/4/2013,0.1891
6/3/2013,0.1892
5/31/2013,0.1892
5/30/2013,0.1894
5/29/2013,0.1895
5/28/2013,0.1897
5/27/2013,0.1899
5/24/2013,0.1899
5/23/2013,0.19
5/22/2013,0.1903
5/21/2013,0.1906
5/20/2013,0.1907
5/17/2013,0.191
5/16/2013,0.1912
5/15/2013,0.1911
5/14/2013,0.191
5/13/2013,0.1911
5/10/2013,0.1913
5/9/2013,0.1916
5/8/2013,0.1917
5/7/2013,0.192
5/6/2013,0.1921
5/3/2013,0.1924
5/2/2013,0.1927
4/30/2013,0.1928
4/29/2013,0.193
4/26/2013,0.1933
4/25/2013,0.1933
4/24/2013,0.1933
4/23/2013,0.1934
4/22/2013,0.1937
4/19/2013,0.1938
4/18/2013,0.1938
4/17/2013,0.1941
4/16/2013,0.1941
4/15/2013,0.194
4/12/2013,0.1943
4/11/2013,0.1945
4/10/2013,0.1946
4/9/2013,0.1947
4/8/2013,0.1947
4/5/2013,0.1947
4/4/2013,0.1948
4/3/2013,0.1949
3/27/2013,0.1952
3/26/2013,0.1954
3/25/2013,0.1955
3/22/2013,0.1957
3/21/2013,0.1962
3/20/2013,0.1962
3/19/2013,0.1962
3/18/2013,0.1962
3/15/2013,0.1965
3/14/2013,0.1966
3/13/2013,0.1969
3/12/2013,0.197
3/11/2013,0.1971
3/8/2013,0.1974
3/7/2013,0.1976
3/6/2013,0.1976
3/5/2013,0.1978
3/4/2013,0.1979
3/1/2013,0.1981
2/28/2013,0.1982
2/27/2013,0.1984
2/26/2013,0.1985
2/25/2013,0.1986
2/22/2013,0.1989
2/21/2013,0.1988
2/19/2013,0.1991
2/18/2013,0.1996
2/15/2013,0.1995
2/14/2013,0.1998
2/13/2013,0.1998
2/8/2013,0.2002
2/7/2013,0.2002
2/6/2013,0.2006
2/5/2013,0.2007
2/4/2013,0.2007
2/1/2013,0.2005
1/30/2013,0.201
1/29/2013,0.2012
1/28/2013,0.2012
1/25/2013,0.2016
1/24/2013,0.2015
1/23/2013,0.2014
1/22/2013,0.2018
1/21/2013,0.2019
1/18/2013,0.202
1/17/2013,0.202
1/16/2013,0.2021
1/15/2013,0.2021
1/14/2013,0.2021
1/11/2013,0.2024
1/10/2013,0.2025
1/9/2013,0.2026
1/8/2013,0.2028
1/7/2013,0.2043
1/4/2013,0.2031
1/3/2013,0.2031
1/2/2013,0.2031
12/31/2012,0.2035
12/28/2012,0.2036
12/27/2012,0.2036
12/26/2012,0.2036
12/21/2012,0.2039
12/20/2012,0.2043
12/19/2012,0.2042
12/18/2012,0.2046
12/17/2012,0.2048
12/14/2012,0.205
12/13/2012,0.2052
12/12/2012,0.2053
12/11/2012,0.2054
12/10/2012,0.2056
12/7/2012,0.2058
12/6/2012,0.2059
12/5/2012,0.2061
12/4/2012,0.2063
12/3/2012,0.2066
11/30/2012,0.2068
11/29/2012,0.207
11/28/2012,0.2071
11/27/2012,0.2073
11/23/2012,0.2074
11/22/2012,0.2074
11/21/2012,0.2077
11/20/2012,0.208
11/19/2012,0.2081
11/16/2012,0.2084
11/15/2012,0.2086
11/14/2012,0.209
11/13/2012,0.2091
11/12/2012,0.2092
11/9/2012,0.2095
11/8/2012,0.2095
11/7/2012,0.2096
11/5/2012,0.2096
11/2/2012,0.2098
11/1/2012,0.2098
10/31/2012,0.2099
10/30/2012,0.2099
10/29/2012,0.2104
10/26/2012,0.2105
10/25/2012,0.2106
10/24/2012,0.2106
10/23/2012,0.2108
10/22/2012,0.211
10/19/2012,0.211
10/18/2012,0.2113
10/17/2012,0.2114
10/16/2012,0.212
10/15/2012,0.2123
10/12/2012,0.2121
10/11/2012,0.2123
10/10/2012,0.2123
10/9/2012,0.2123
10/5/2012,0.2124
10/4/2012,0.2126
10/3/2012,0.2127
10/2/2012,0.2129
10/1/2012,0.2129
9/28/2012,0.2129
9/27/2012,0.2132
9/26/2012,0.2133
9/25/2012,0.2133
9/21/2012,0.2135
9/20/2012,0.2136
9/19/2012,0.2136
9/18/2012,0.214
9/17/2012,0.2141
9/14/2012,0.2141
9/13/2012,0.2145
9/12/2012,0.2145
9/11/2012,0.2145
9/10/2012,0.2145
9/7/2012,0.2145
9/6/2012,0.2149
9/5/2012,0.215
9/4/2012,0.2151
9/3/2012,0.2155
8/31/2012,0.2156
8/30/2012,0.216
8/29/2012,0.216
8/28/2012,0.2159
8/27/2012,0.2167
8/24/2012,0.2162
8/23/2012,0.2166
8/22/2012,0.2166
8/21/2012,0.2166
8/17/2012,0.2166
8/16/2012,0.2169
8/15/2012,0.2171
8/14/2012,0.2171
8/13/2012,0.2172
8/10/2012,0.2175
8/9/2012,0.2175
8/8/2012,0.2176
8/7/2012,0.2175
8/6/2012,0.2179
8/3/2012,0.2179
8/2/2012,0.2181
8/1/2012,0.2185
7/31/2012,0.2181
7/30/2012,0.2186
7/27/2012,0.2186
7/26/2012,0.2186
7/25/2012,0.219
7/24/2012,0.2187
7/23/2012,0.2191
7/20/2012,0.2191
7/19/2012,0.2195
7/18/2012,0.2195
7/17/2012,0.2199
7/16/2012,0.2199
7/13/2012,0.22
7/12/2012,0.2202
7/11/2012,0.2204
7/10/2012,0.2203
7/6/2012,0.2205
7/5/2012,0.2208
7/4/2012,0.221
7/3/2012,0.221
7/2/2012,0.221
6/29/2012,0.221
6/28/2012,0.2212
6/27/2012,0.2215
6/26/2012,0.2219
6/25/2012,0.2216
6/22/2012,0.2216
6/21/2012,0.2219
6/19/2012,0.2222
6/18/2012,0.2224
6/15/2012,0.2225
6/14/2012,0.2227
6/13/2012,0.223
6/12/2012,0.2227
6/11/2012,0.2227
6/8/2012,0.2231
6/7/2012,0.2231
6/6/2012,0.2229
6/5/2012,0.2235
6/4/2012,0.2235
6/1/2012,0.2237
5/31/2012,0.2238
5/30/2012,0.2237
5/29/2012,0.2237
5/28/2012,0.2235
5/24/2012,0.2238
5/23/2012,0.2238
5/22/2012,0.2238
5/21/2012,0.224
5/18/2012,0.2244
5/17/2012,0.2247
5/16/2012,0.2249
5/15/2012,0.2251
5/14/2012,0.2253
5/11/2012,0.2253
5/10/2012,0.2252
5/9/2012,0.2254
5/8/2012,0.2255
5/7/2012,0.2256
5/4/2012,0.226
5/3/2012,0.2261
5/2/2012,0.2261
4/27/2012,0.2265
4/26/2012,0.2266
4/25/2012,0.2268
4/24/2012,0.2269
4/23/2012,0.2269
4/20/2012,0.227
4/19/2012,0.2274
4/18/2012,0.2274
4/17/2012,0.2277
4/16/2012,0.2276
4/13/2012,0.2276
4/12/2012,0.2276
4/11/2012,0.2279
4/10/2012,0.2282
4/9/2012,0.2283
4/4/2012,0.228
4/3/2012,0.2284
3/30/2012,0.2283
3/29/2012,0.2286
3/28/2012,0.2287
3/27/2012,0.2288
3/26/2012,0.229
3/23/2012,0.2289
3/22/2012,0.229
3/21/2012,0.229
3/20/2012,0.2292
3/19/2012,0.2291
3/16/2012,0.2298
3/15/2012,0.2297
3/14/2012,0.2297
3/13/2012,0.23
3/12/2012,0.23
3/9/2012,0.2304
3/8/2012,0.2307
3/7/2012,0.2307
3/6/2012,0.2307
3/5/2012,0.2308
3/2/2012,0.2307
3/1/2012,0.2302
2/29/2012,0.2296
2/28/2012,0.2296
2/24/2012,0.2297
2/23/2012,0.2297
2/22/2012,0.2297
2/17/2012,0.2298
2/16/2012,0.2299
2/15/2012,0.2301
2/14/2012,0.2301
2/13/2012,0.2302
2/10/2012,0.2301
2/9/2012,0.2302
2/8/2012,0.2302
2/7/2012,0.2305
2/6/2012,0.2307
2/3/2012,0.2312
2/2/2012,0.2306
2/1/2012,0.2305
1/31/2012,0.231
1/30/2012,0.2307
1/27/2012,0.2306
1/26/2012,0.2307
1/25/2012,0.2319
1/24/2012,0.231
1/23/2012,0.231
1/20/2012,0.2313
1/19/2012,0.2318
1/18/2012,0.2319
1/17/2012,0.2317
1/16/2012,0.2319
1/13/2012,0.2319
1/12/2012,0.2319
1/11/2012,0.2321
1/10/2012,0.2319
1/9/2012,0.2321
1/6/2012,0.2316
1/5/2012,0.2321
1/4/2012,0.2324
1/3/2012,0.2321
12/30/2011,0.2322
12/29/2011,0.2325
12/28/2011,0.2326
12/27/2011,0.2327
12/23/2011,0.233
12/22/2011,0.2331
12/21/2011,0.2332
12/20/2011,0.2331
12/19/2011,0.2328
12/16/2011,0.2332
12/15/2011,0.2335
12/14/2011,0.2337
12/13/2011,0.2327
12/12/2011,0.2326
12/7/2011,0.234
12/6/2011,0.2338
12/5/2011,0.2326
12/2/2011,0.2336
12/1/2011,0.2331
11/30/2011,0.2334
11/29/2011,0.2339
11/25/2011,0.2344
11/24/2011,0.2348
11/23/2011,0.2346
11/22/2011,0.2349
11/21/2011,0.2346
11/18/2011,0.235
11/17/2011,0.2338
11/16/2011,0.2342
11/15/2011,0.2346
11/14/2011,0.2341
11/11/2011,0.2346
11/10/2011,0.2347
11/9/2011,0.2342
11/8/2011,0.235
11/7/2011,0.2352
11/4/2011,0.2353
11/3/2011,0.2354
11/2/2011,0.2355
11/1/2011,0.2361
10/31/2011,0.2357
10/28/2011,0.236
10/27/2011,0.2362
10/26/2011,0.2367
10/25/2011,0.236
10/24/2011,0.236
10/21/2011,0.2364
10/20/2011,0.2371
10/19/2011,0.2359
10/18/2011,0.237
10/17/2011,0.2364
10/14/2011,0.2374
10/13/2011,0.2382
10/12/2011,0.2374
10/11/2011,0.2375
10/7/2011,0.2365
10/6/2011,0.238
10/5/2011,0.2381
10/4/2011,0.2379
10/3/2011,0.237
9/30/2011,0.2373
9/29/2011,0.2375
9/28/2011,0.2379
9/27/2011,0.2378
9/26/2011,0.2381
9/23/2011,0.2379
9/22/2011,0.2383
9/21/2011,0.2387
9/20/2011,0.2387
9/19/2011,0.2378
9/16/2011,0.2378
9/15/2011,0.2379
9/14/2011,0.238
9/13/2011,0.238
9/12/2011,0.2379
9/9/2011,0.238
9/8/2011,0.2379
9/7/2011,0.2379
9/6/2011,0.2379
9/5/2011,0.238
9/2/2011,0.238
9/1/2011,0.2369
8/31/2011,0.2383
8/30/2011,0.2384
8/29/2011,0.2388
8/26/2011,0.239
8/25/2011,0.239
8/24/2011,0.2389
8/23/2011,0.2393
8/19/2011,0.2394
8/18/2011,0.2397
8/17/2011,0.2402
8/16/2011,0.2403
8/15/2011,0.2405
8/12/2011,0.2405
8/11/2011,0.2406
8/10/2011,0.2406
8/9/2011,0.2406
8/8/2011,0.2407
8/5/2011,0.2407
8/4/2011,0.2408
8/3/2011,0.2411
8/2/2011,0.2412
8/1/2011,0.2411
7/29/2011,0.2413
7/28/2011,0.2414
7/27/2011,0.2417
7/26/2011,0.2419
7/25/2011,0.2418
7/22/2011,0.2417
7/21/2011,0.2418
7/20/2011,0.2418
7/19/2011,0.2425
7/18/2011,0.2424
7/15/2011,0.2426
7/14/2011,0.2426
7/13/2011,0.2427
7/12/2011,0.2426
7/11/2011,0.2426
7/8/2011,0.2427
7/7/2011,0.2427
7/6/2011,0.2429
7/5/2011,0.2433
7/4/2011,0.2434
7/1/2011,0.2434
6/30/2011,0.2433
6/29/2011,0.2435
6/28/2011,0.2438
6/27/2011,0.2438
6/24/2011,0.2441
6/23/2011,0.2439
6/22/2011,0.244
6/21/2011,0.2441
6/17/2011,0.2442
6/16/2011,0.2443
6/15/2011,0.2443
6/14/2011,0.2443
6/13/2011,0.2443
6/10/2011,0.244
6/9/2011,0.2443
6/8/2011,0.2444
6/7/2011,0.2446
6/6/2011,0.2441
6/3/2011,0.2448
6/2/2011,0.2457
6/1/2011,0.245
5/31/2011,0.2449
5/30/2011,0.2448
5/27/2011,0.2451
5/26/2011,0.2453
5/24/2011,0.2448
5/23/2011,0.245
5/20/2011,0.2446
5/19/2011,0.245
5/18/2011,0.2443
5/17/2011,0.2452
5/16/2011,0.2438
5/13/2011,0.2447
5/12/2011,0.245
5/11/2011,0.2449
5/10/2011,0.2459
5/9/2011,0.2452
5/6/2011,0.2452
5/5/2011,0.2454
5/4/2011,0.245
5/3/2011,0.2448
5/2/2011,0.2444
4/29/2011,0.245
4/28/2011,0.2454
4/27/2011,0.2451
4/26/2011,0.2453
4/25/2011,0.2452
4/22/2011,0.2452
4/21/2011,0.2452
4/20/2011,0.2452
4/19/2011,0.2457
4/18/2011,0.2459
4/15/2011,0.2455
4/14/2011,0.2461
4/13/2011,0.2463
4/12/2011,0.2471
4/11/2011,0.2468
4/8/2011,0.2473
4/7/2011,0.2469
4/6/2011,0.2467
4/5/2011,0.2467
4/4/2011,0.2468
4/1/2011,0.2469
3/31/2011,0.2466
3/30/2011,0.2472
3/29/2011,0.2474
3/28/2011,0.2471
3/23/2011,0.2474
3/22/2011,0.2473
3/21/2011,0.2479
3/18/2011,0.2476
3/17/2011,0.2476
3/16/2011,0.2476
3/15/2011,0.2481
3/14/2011,0.2483
3/11/2011,0.2488
3/10/2011,0.2478
3/9/2011,0.2484
3/8/2011,0.2482
3/7/2011,0.2482
3/4/2011,0.2483
3/3/2011,0.2484
3/2/2011,0.2482
3/1/2011,0.2478
2/28/2011,0.2483
2/25/2011,0.2483
2/24/2011,0.2486
2/23/2011,0.2483
2/22/2011,0.2481
2/21/2011,0.2485
2/18/2011,0.2488
2/17/2011,0.2486
2/16/2011,0.2487
2/15/2011,0.2485
2/14/2011,0.2486
2/11/2011,0.249
2/10/2011,0.2485
2/9/2011,0.2495
2/8/2011,0.2491
2/7/2011,0.2489
2/4/2011,0.2491
2/3/2011,0.2492
2/2/2011,0.2493
2/1/2011,0.2497
1/31/2011,0.2495
1/28/2011,0.2501
1/27/2011,0.2513
1/26/2011,0.2509
1/25/2011,0.2514
1/24/2011,0.2509
1/21/2011,0.2511
1/20/2011,0.2515
1/19/2011,0.2509
1/18/2011,0.2511
1/17/2011,0.2513
1/14/2011,0.2526
1/13/2011,0.2517
1/12/2011,0.2515
1/11/2011,0.2518
1/10/2011,0.2516
1/7/2011,0.2512
1/6/2011,0.2516
1/5/2011,0.2517
1/4/2011,0.2518
1/3/2011,0.2517
12/31/2010,0.2515
12/30/2010,0.2519
12/29/2010,0.2516
12/28/2010,0.251
12/27/2010,0.252
12/24/2010,0.2517
12/23/2010,0.2517
12/22/2010,0.2518
12/21/2010,0.251
12/20/2010,0.2517
12/17/2010,0.252
12/16/2010,0.2522
12/15/2010,0.2518
12/14/2010,0.2516
12/13/2010,0.2518
12/10/2010,0.2512
12/9/2010,0.252
12/7/2010,0.2512
12/6/2010,0.2521
12/3/2010,0.2523
12/2/2010,0.2509
12/1/2010,0.2509
11/30/2010,0.25
11/29/2010,0.2518
11/26/2010,0.2517
11/25/2010,0.2525
11/24/2010,0.2511
11/23/2010,0.2514
11/19/2010,0.2523
11/18/2010,0.2521
11/17/2010,0.251
11/16/2010,0.2513
11/15/2010,0.2515
11/12/2010,0.2523
11/11/2010,0.2526
11/10/2010,0.2535
11/9/2010,0.2507
11/8/2010,0.2525
11/5/2010,0.2529
11/4/2010,0.2526
11/3/2010,0.2547
11/2/2010,0.2525
11/1/2010,0.2528
10/29/2010,0.2537
10/28/2010,0.2527
10/26/2010,0.2525
10/25/2010,0.2526
10/22/2010,0.2527
10/21/2010,0.2527
10/20/2010,0.2528
10/19/2010,0.2529
10/18/2010,0.2525
10/15/2010,0.253
10/14/2010,0.2534
10/13/2010,0.253
10/12/2010,0.2527
10/8/2010,0.2529
10/7/2010,0.2526
10/6/2010,0.2526
10/5/2010,0.2526
10/4/2010,0.2524
10/1/2010,0.2528
9/30/2010,0.2529
9/29/2010,0.2518
9/28/2010,0.2519
9/27/2010,0.2522
9/24/2010,0.253
9/23/2010,0.2527
9/22/2010,0.2534
9/21/2010,0.2555
9/20/2010,0.2529
9/17/2010,0.2531
9/16/2010,0.2532
9/15/2010,0.2533
9/14/2010,0.253
9/13/2010,0.2533
9/10/2010,0.2525
9/9/2010,0.2532
9/8/2010,0.2533
9/7/2010,0.2527
9/6/2010,0.2532
9/3/2010,0.2538
9/2/2010,0.2533
9/1/2010,0.2534
8/31/2010,0.2527
8/30/2010,0.2533
8/27/2010,0.2535
8/26/2010,0.2536
8/25/2010,0.2535
8/24/2010,0.2534
8/23/2010,0.2539
8/20/2010,0.2545
8/19/2010,0.2539
8/18/2010,0.2542
8/17/2010,0.2542
8/16/2010,0.2542
8/13/2010,0.2542
8/12/2010,0.2535
8/11/2010,0.2539
8/10/2010,0.2542
8/9/2010,0.2542
8/6/2010,0.2544
8/5/2010,0.2545
8/4/2010,0.2544
8/3/2010,0.2541
8/2/2010,0.2539
7/30/2010,0.2535
7/29/2010,0.2541
7/28/2010,0.2542
7/27/2010,0.2545
7/26/2010,0.2544
7/23/2010,0.2545
7/22/2010,0.2542
7/21/2010,0.2543
7/20/2010,0.2541
7/19/2010,0.2538
7/16/2010,0.2541
7/15/2010,0.2553
7/14/2010,0.2549
7/13/2010,0.2542
7/12/2010,0.2543
7/8/2010,0.2542
7/7/2010,0.2541
7/6/2010,0.254
7/5/2010,0.2545
7/2/2010,0.2541
7/1/2010,0.2544
6/30/2010,0.2543
6/29/2010,0.2543
6/28/2010,0.2539
6/25/2010,0.2557
6/24/2010,0.2539
6/23/2010,0.2547
6/22/2010,0.2547
6/18/2010,0.255
6/17/2010,0.2549
6/16/2010,0.2547
6/15/2010,0.2549
6/14/2010,0.254
6/11/2010,0.2554
6/10/2010,0.2557
6/9/2010,0.2553
6/8/2010,0.2553
6/7/2010,0.2548
6/4/2010,0.2544
6/3/2010,0.2546
6/2/2010,0.2551
6/1/2010,0.2543
5/31/2010,0.2561
5/28/2010,0.2555
5/27/2010,0.2557
5/26/2010,0.2555
5/21/2010,0.256
5/20/2010,0.2562
5/19/2010,0.258
5/18/2010,0.2562
5/17/2010,0.2564
5/14/2010,0.2566
5/13/2010,0.2568
5/12/2010,0.2568
5/11/2010,0.2568
5/10/2010,0.2569
5/7/2010,0.2575
5/6/2010,0.2568
5/5/2010,0.2548
5/4/2010,0.257
5/3/2010,0.2577
4/30/2010,0.2573
4/29/2010,0.2577
4/28/2010,0.2595
4/27/2010,0.257
4/26/2010,0.2592
4/23/2010,0.2585
4/22/2010,0.2584
4/21/2010,0.2585
4/20/2010,0.258
4/19/2010,0.2592
4/16/2010,0.2586
4/15/2010,0.2585
4/14/2010,0.2577
4/13/2010,0.2581
4/12/2010,0.2581
4/9/2010,0.2588
4/8/2010,0.258
4/7/2010,0.2576
4/6/2010,0.2581
4/5/2010,0.258
3/31/2010,0.258
3/30/2010,0.2581
3/29/2010,0.2586
3/26/2010,0.2589
3/25/2010,0.2588
3/23/2010,0.2586
3/22/2010,0.2585
3/19/2010,0.2588
3/18/2010,0.259
3/17/2010,0.2589
3/16/2010,0.2591
3/15/2010,0.2593
3/12/2010,0.2592
3/11/2010,0.2593
3/10/2010,0.2591
3/9/2010,0.2594
3/8/2010,0.2595
3/5/2010,0.2596
3/4/2010,0.2596
3/3/2010,0.2592
3/2/2010,0.2598
3/1/2010,0.2591
2/26/2010,0.2585
2/25/2010,0.2592
2/24/2010,0.2583
2/23/2010,0.2583
2/22/2010,0.2592
2/19/2010,0.2592
2/18/2010,0.259
2/17/2010,0.259
2/16/2010,0.2594
2/15/2010,0.2592
2/12/2010,0.2595
2/11/2010,0.2603
2/10/2010,0.2602
2/9/2010,0.2603
2/8/2010,0.2593
2/5/2010,0.2615
2/4/2010,0.2602
2/3/2010,0.2611
2/2/2010,0.2614
2/1/2010,0.2609
1/29/2010,0.2614
1/28/2010,0.2617
1/27/2010,0.2619
1/26/2010,0.2624
1/25/2010,0.2623
1/22/2010,0.2625
1/21/2010,0.2625
1/20/2010,0.2633
1/19/2010,0.2634
1/18/2010,0.2635
1/15/2010,0.2634
1/14/2010,0.2637
1/13/2010,0.2635
1/12/2010,0.263
1/11/2010,0.2633
1/8/2010,0.2631
1/7/2010,0.2635
1/6/2010,0.2626
1/5/2010,0.2632
1/4/2010,0.2635
12/31/2009,0.2632
12/30/2009,0.2631
12/29/2009,0.2616
12/28/2009,0.2636
12/24/2009,0.2634
12/23/2009,0.2635
12/22/2009,0.263
12/21/2009,0.2616
12/18/2009,0.2632
12/17/2009,0.2619
12/16/2009,0.2625
12/15/2009,0.2624
12/14/2009,0.2627
12/11/2009,0.2638
12/10/2009,0.2632
12/9/2009,0.2631
12/7/2009,0.2629
12/4/2009,0.2626
12/3/2009,0.2625
12/2/2009,0.2623
12/1/2009,0.2626
11/30/2009,0.2626
11/27/2009,0.2629
11/26/2009,0.2631
11/25/2009,0.2637
11/24/2009,0.2633
11/23/2009,0.2632
11/20/2009,0.2631
11/19/2009,0.2632
11/18/2009,0.2621
11/17/2009,0.2622
11/16/2009,0.2622
11/13/2009,0.2625
11/12/2009,0.2622
11/11/2009,0.2623
11/10/2009,0.2622
11/9/2009,0.262
11/5/2009,0.262
11/4/2009,0.2621
11/3/2009,0.2631
11/2/2009,0.2618
10/30/2009,0.2617
10/29/2009,0.2616
10/28/2009,0.2617
10/27/2009,0.262
10/26/2009,0.2618
10/23/2009,0.2614
10/22/2009,0.262
10/21/2009,0.2619
10/20/2009,0.2625
10/19/2009,0.2618
10/16/2009,0.262
10/15/2009,0.2619
10/14/2009,0.2618
10/13/2009,0.2617
10/9/2009,0.2614
10/8/2009,0.2609
10/7/2009,0.261
10/6/2009,0.2603
10/5/2009,0.2603
10/2/2009,0.26
10/1/2009,0.2604
9/30/2009,0.2603
9/29/2009,0.2605
9/28/2009,0.2599
9/25/2009,0.2606
9/24/2009,0.2604
9/23/2009,0.2604
9/22/2009,0.2607
9/21/2009,0.2607
9/18/2009,0.2607
9/17/2009,0.2611
9/16/2009,0.2614
9/15/2009,0.2618
9/14/2009,0.2596
9/11/2009,0.2594
9/10/2009,0.2597
9/9/2009,0.2594
9/8/2009,0.2596
9/7/2009,0.2597
9/4/2009,0.2601
9/3/2009,0.2596
9/2/2009,0.2602
9/1/2009,0.2598
8/31/2009,0.2594
8/28/2009,0.2596
8/27/2009,0.2599
8/26/2009,0.26
8/25/2009,0.259
8/24/2009,0.2594
8/21/2009,0.2601
8/20/2009,0.26
8/19/2009,0.2593
8/18/2009,0.2601
8/14/2009,0.2601
8/13/2009,0.2608
8/12/2009,0.2606
8/11/2009,0.2612
8/10/2009,0.2612
8/7/2009,0.2613
8/6/2009,0.2614
8/5/2009,0.2617
8/4/2009,0.2617
8/3/2009,0.2613
7/31/2009,0.2608
7/30/2009,0.261
7/29/2009,0.2616
7/28/2009,0.2624
7/27/2009,0.2625
7/24/2009,0.2627
7/23/2009,0.2603
7/22/2009,0.2626
7/21/2009,0.2631
7/20/2009,0.2629
7/17/2009,0.2623
7/16/2009,0.2631
7/15/2009,0.2626
7/14/2009,0.2625
7/13/2009,0.2625
7/10/2009,0.2631
7/8/2009,0.2625
7/7/2009,0.2628
7/6/2009,0.2631
7/3/2009,0.2631
7/2/2009,0.2631
7/1/2009,0.2633
6/30/2009,0.2634
6/29/2009,0.264
6/26/2009,0.2632
6/25/2009,0.2636
6/24/2009,0.264
6/23/2009,0.2637
6/22/2009,0.2646
6/19/2009,0.265
6/18/2009,0.2656
6/17/2009,0.2674
6/16/2009,0.2649
6/15/2009,0.266
6/12/2009,0.2653
6/11/2009,0.2662
6/10/2009,0.266
6/9/2009,0.2668
6/8/2009,0.2666
6/5/2009,0.2668
6/4/2009,0.2669
6/3/2009,0.2667
6/2/2009,0.2678
6/1/2009,0.2675
5/29/2009,0.2676
5/28/2009,0.2673
5/27/2009,0.2668
5/26/2009,0.2672
5/25/2009,0.2681
5/22/2009,0.2676
5/21/2009,0.2706
5/20/2009,0.268
5/19/2009,0.2682
5/18/2009,0.2684
5/15/2009,0.2682
5/14/2009,0.2688
5/13/2009,0.2684
5/12/2009,0.2688
5/11/2009,0.2688
5/8/2009,0.269
5/7/2009,0.2694
5/6/2009,0.2695
5/5/2009,0.2704
5/4/2009,0.2708
5/1/2009,0.2693
4/30/2009,0.2692
4/29/2009,0.2688
4/28/2009,0.2694
4/27/2009,0.27
4/24/2009,0.2706
4/23/2009,0.2707
4/22/2009,0.2705
4/21/2009,0.2708
4/20/2009,0.2711
4/17/2009,0.2719
4/16/2009,0.272
4/15/2009,0.272
4/14/2009,0.2719
4/13/2009,0.2717
4/10/2009,0.2722
4/9/2009,0.2722
4/8/2009,0.2719
4/7/2009,0.2721
4/6/2009,0.2721
4/3/2009,0.2709
4/2/2009,0.2698
4/1/2009,0.2695
3/31/2009,0.2694
3/30/2009,0.2691
3/27/2009,0.2692
3/26/2009,0.2706
3/25/2009,0.2712
3/24/2009,0.2715
3/23/2009,0.2712
3/20/2009,0.2736
3/19/2009,0.2736
3/18/2009,0.2737
3/17/2009,0.2744
3/16/2009,0.2747
3/13/2009,0.2743
3/12/2009,0.2743
3/11/2009,0.2749
3/10/2009,0.2751
3/9/2009,0.275
3/6/2009,0.2755
3/5/2009,0.2761
3/4/2009,0.277
3/3/2009,0.2771
3/2/2009,0.2773
2/27/2009,0.2805
2/26/2009,0.2813
2/25/2009,0.2815
2/24/2009,0.2815
2/23/2009,0.282
2/20/2009,0.2826
2/19/2009,0.2832
2/18/2009,0.2851
2/17/2009,0.2856
2/16/2009,0.2862
2/13/2009,0.2861
2/12/2009,0.286
2/11/2009,0.2869
2/10/2009,0.2872
2/9/2009,0.287
2/6/2009,0.2869
2/5/2009,0.2871
2/4/2009,0.2864
2/3/2009,0.286
2/2/2009,0.2866
1/30/2009,0.2869
1/29/2009,0.2867
1/28/2009,0.2871
1/27/2009,0.287
1/26/2009,0.2871
1/23/2009,0.2876
1/22/2009,0.2879
1/21/2009,0.2884
1/20/2009,0.2891
1/19/2009,0.2894
1/16/2009,0.2895
1/15/2009,0.2898
1/14/2009,0.2899
1/13/2009,0.2902
1/12/2009,0.29
1/9/2009,0.29
1/8/2009,0.2897
1/7/2009,0.2894
1/6/2009,0.2898
1/5/2009,0.2892
1/2/2009,0.2892
1/1/2009,0.2896
12/31/2008,0.2895
12/30/2008,0.2898
12/29/2008,0.2905
12/26/2008,0.2907
12/24/2008,0.291
12/23/2008,0.2915
12/22/2008,0.2924
12/19/2008,0.2927
12/18/2008,0.2936
12/17/2008,0.2936
12/16/2008,0.294
12/15/2008,0.2922
12/12/2008,0.2921
12/11/2008,0.2936
12/10/2008,0.2927
12/9/2008,0.2915
12/8/2008,0.2879
12/5/2008,0.2878
12/4/2008,0.2906
12/3/2008,0.2934
12/2/2008,0.2945
12/1/2008,0.2956
11/28/2008,0.2966
11/27/2008,0.2981
11/26/2008,0.2988
11/25/2008,0.2994
11/24/2008,0.2998
11/21/2008,0.3001
11/20/2008,0.3003
11/19/2008,0.3007
11/18/2008,0.301
11/17/2008,0.3014
11/14/2008,0.3019
11/13/2008,0.3019
11/12/2008,0.3026
11/11/2008,0.3031
11/10/2008,0.3032
11/7/2008,0.3024
11/6/2008,0.3027
11/5/2008,0.3026
11/4/2008,0.3005
11/3/2008,0.2953
10/31/2008,0.2953
10/30/2008,0.2953
10/29/2008,0.2968
10/28/2008,0.297
10/27/2008,0.3032
10/24/2008,0.305
10/23/2008,0.3078
10/22/2008,0.3102
10/21/2008,0.3107
10/20/2008,0.3104
10/17/2008,0.3113
10/16/2008,0.3122
10/15/2008,0.3126
10/14/2008,0.3133
10/13/2008,0.3105
10/10/2008,0.3102
10/9/2008,0.3095
10/8/2008,0.3103
10/7/2008,0.311
10/6/2008,0.3128
10/3/2008,0.3163
10/2/2008,0.3181
10/1/2008,0.3189
9/30/2008,0.3191
9/29/2008,0.3206
9/26/2008,0.3209
9/25/2008,0.3212
9/24/2008,0.3219
9/23/2008,0.3227
9/22/2008,0.3226
9/19/2008,0.321
9/18/2008,0.3206
9/17/2008,0.3221
9/16/2008,0.3231
9/15/2008,0.3241
9/12/2008,0.3246
9/11/2008,0.3246
9/10/2008,0.3254
9/9/2008,0.3271
9/8/2008,0.328
9/5/2008,0.3289
9/4/2008,0.3292
9/3/2008,0.3298
9/2/2008,0.3291
9/1/2008,0.3303
8/29/2008,0.33
8/28/2008,0.3304
8/27/2008,0.3305
8/26/2008,0.3304
8/25/2008,0.3305
8/22/2008,0.3307
8/21/2008,0.3306
8/20/2008,0.3307
8/19/2008,0.33
8/18/2008,0.3301
8/15/2008,0.3302
8/14/2008,0.3302
8/13/2008,0.3302
8/12/2008,0.3297
8/11/2008,0.3296
8/8/2008,0.3277
8/7/2008,0.3281
8/6/2008,0.3286
8/5/2008,0.3291
8/4/2008,0.3292
8/1/2008,0.3289
7/31/2008,0.3285
7/30/2008,0.3305
7/29/2008,0.3307
7/28/2008,0.3313
7/25/2008,0.3316
7/24/2008,0.3315
7/23/2008,0.3311
7/22/2008,0.3308
7/21/2008,0.3307
7/18/2008,0.3306
7/17/2008,0.331
7/16/2008,0.3303
7/15/2008,0.3308
7/14/2008,0.3309
7/11/2008,0.3309
7/10/2008,0.3314
7/9/2008,0.3318
7/8/2008,0.3318
7/7/2008,0.3312
7/4/2008,0.3301
7/3/2008,0.3303
7/2/2008,0.3312
7/1/2008,0.3308
6/30/2008,0.3307
6/27/2008,0.3304
6/26/2008,0.3304
6/25/2008,0.3314
6/24/2008,0.3316
6/23/2008,0.3313
6/20/2008,0.3294
6/19/2008,0.3297
6/18/2008,0.3296
6/17/2008,0.3294
6/16/2008,0.3289
6/13/2008,0.3291
6/12/2008,0.3278
6/11/2008,0.3267
6/10/2008,0.3263
6/9/2008,0.3264
6/6/2008,0.3259
6/5/2008,0.3262
6/4/2008,0.3257
6/3/2008,0.324
6/2/2008,0.324
5/30/2008,0.3227
5/29/2008,0.3214
5/28/2008,0.3208
5/27/2008,0.3198
5/26/2008,0.3186
5/23/2008,0.3188
5/22/2008,0.319
5/21/2008,0.3194
5/20/2008,0.3185
5/19/2008,0.3176
5/16/2008,0.316
5/15/2008,0.3164
5/14/2008,0.3165
5/13/2008,0.3158
5/12/2008,0.3148
5/9/2008,0.3148
5/8/2008,0.3146
5/7/2008,0.3141
5/6/2008,0.3147
5/5/2008,0.3151
5/2/2008,0.3152
5/1/2008,0.316