5/20/2016,-0.593,-0.176,0.542
1/26/2011,1.996,3.014,3.402
11/21/2016,-0.671,-0.137,0.519
1/24/2012,1.013,1.269,1.875
2/3/2016,-0.555,-0.053,0.546
12/24/2010,1.791,2.642,3.22
1/4/2016,-0.479,0.238,0.924
4/11/2014,0.651,1.261,2.031
7/18/2013,1.02,1.533,2.062
1/6/2014,1.077,1.786,2.496
3/1/2010,1.535,2.458,3.133
8/17/2016,-0.634,-0.367,0.079
5/14/2008,4.137,4.127,4.176
7/25/2013,1.1,1.685,2.214
3/20/2009,1.104,2.141,2.881
3/15/2017,-0.567,0.069,0.743
5/9/2016,-0.609,-0.151,0.51
2/16/2011,2.138,3.103,3.46
5/14/2013,0.785,1.283,1.76
4/23/2012,1.076,1.36,1.735
7/28/2008,4.614,4.56,4.376
10/30/2012,0.78,1.01,1.526
12/21/2017,-0.791,-0.102,0.765
9/5/2016,-0.628,-0.325,0.151
2/24/2017,-0.66,-0.139,0.549
3/4/2009,1.107,2.09,2.829
11/17/2009,0.613,2.508,3.254
7/9/2012,0.788,0.955,1.321
2/19/2009,1.124,2.144,2.85
7/30/2008,4.576,4.479,4.291
7/29/2015,-0.39,0.132,0.756
10/10/2014,0.11,0.477,1.378
6/14/2010,1.281,1.96,2.509
1/2/2017,-0.626,-0.126,0.542
4/16/2013,0.961,1.328,1.696
4/27/2012,1.153,1.422,1.798
8/7/2009,1.146,2.839,3.523
5/10/2018,-0.475,0.124,0.735
8/30/2010,1.263,1.776,2.239
8/19/2015,-0.484,0.016,0.628
1/18/2011,1.885,2.816,3.255
11/21/2017,-0.879,-0.236,0.721
5/28/2012,0.784,1.044,1.408
9/4/2015,-0.478,0.028,0.651
4/24/2018,-0.488,0.163,0.792
2/21/2014,0.874,1.473,2.203
12/29/2011,0.839,1.02,1.629
6/30/2015,-0.267,0.369,0.987
10/14/2013,1.069,1.831,2.473
7/23/2009,0.83,2.565,3.398
5/25/2016,-0.593,-0.158,0.536
4/5/2010,1.551,2.5,3.201
10/21/2008,3.217,3.37,3.635
6/22/2016,-0.567,-0.058,0.591
8/26/2015,-0.526,0.01,0.628
12/13/2011,0.854,1.046,1.609
7/31/2017,-0.671,0.043,0.74
2/15/2018,-0.731,0.055,0.965
2/14/2011,2.12,3.119,3.506
4/27/2016,-0.602,-0.054,0.644
6/15/2017,-0.687,-0.168,0.454
9/22/2016,-0.65,-0.293,0.223
6/26/2017,-0.698,-0.163,0.452
3/8/2018,-0.432,0.216,0.817
7/9/2009,0.953,2.521,3.306
2/9/2010,1.54,2.553,3.238
2/22/2013,1.068,1.421,2.004
1/11/2016,-0.506,0.152,0.859
2/4/2011,2.071,3.111,3.468
3/20/2015,-0.314,0.024,0.429
9/19/2012,0.765,1.082,1.581
10/30/2017,-0.755,-0.13,0.797
6/19/2014,0.501,1.027,1.801
7/8/2015,-0.438,0.099,0.752
7/21/2011,2.235,2.599,2.887
11/3/2015,-0.458,0.028,0.678
5/13/2016,-0.599,-0.2,0.487
3/9/2017,-0.596,0.036,0.73
5/3/2013,0.818,1.254,1.687
1/11/2018,-0.756,-0.026,0.865
2/16/2017,-0.551,0.057,0.736
12/20/2016,-0.641,-0.027,0.69
6/18/2014,0.528,1.07,1.84
9/15/2014,0.211,0.649,1.6
11/3/2014,0.02,0.336,1.238
7/23/2014,0.286,0.754,1.654
5/3/2018,-0.541,0.049,0.666
11/28/2016,-0.695,-0.167,0.52
6/29/2010,1.427,2.09,2.636
2/26/2009,1.091,2.119,2.841
11/20/2012,0.738,0.993,1.512
6/30/2009,1.157,2.643,3.465
9/12/2017,-0.7,-0.073,0.802
4/2/2012,1.304,1.636,2.004
11/29/2012,0.719,0.953,1.478
2/11/2010,1.671,2.697,3.339
9/18/2015,-0.479,0.063,0.743
7/15/2009,0.841,2.51,3.341
2/21/2012,1.088,1.337,1.957
1/27/2010,1.575,2.245,3.161
10/18/2013,1.047,1.808,2.445
3/17/2010,1.588,2.491,3.194
2/3/2010,1.638,2.308,3.196
2/5/2010,1.51,2.511,3.201
6/25/2012,0.797,1.034,1.423
6/22/2015,-0.276,0.432,1.066
10/23/2008,2.979,3.153,3.484
4/8/2015,-0.325,0.002,0.384
6/27/2016,-0.65,-0.201,0.365
11/22/2013,0.903,1.619,2.298
5/18/2009,1.192,2.675,3.517
8/12/2014,0.237,0.717,1.62
8/11/2010,1.307,1.945,2.49
9/12/2016,-0.588,-0.2,0.31
2/12/2016,-0.614,-0.163,0.465
4/24/2014,0.672,1.291,2.033
2/13/2017,-0.54,0.062,0.722
3/29/2016,-0.65,-0.145,0.501
1/2/2012,0.903,1.093,1.681
11/27/2012,0.741,0.984,1.522
2/24/2016,-0.599,-0.12,0.477
2/22/2016,-0.606,-0.125,0.497
3/28/2017,-0.577,-0.007,0.646
7/30/2012,0.965,1.118,1.466
10/29/2008,2.767,3.006,3.485
9/9/2014,0.166,0.559,1.479
9/14/2009,0.822,2.639,3.332
2/9/2017,-0.557,0.005,0.642
7/29/2010,1.454,2.227,2.789
2/9/2015,-0.159,0.188,0.646
11/25/2011,0.84,1.119,1.622
8/10/2010,1.401,2.069,2.583
9/20/2017,-0.696,-0.021,0.849
9/15/2011,1.219,1.554,1.925
6/24/2008,4.63,4.662,4.453
9/2/2009,0.95,2.663,3.309
2/25/2015,-0.228,0.142,0.663
12/31/2015,-0.439,0.303,1.004
7/14/2017,-0.645,0.038,0.705
6/4/2010,1.298,2.037,2.601
8/22/2008,4.412,4.274,4.145
2/27/2017,-0.671,-0.15,0.523
2/20/2017,-0.606,-0.018,0.67
6/17/2011,2.346,2.599,2.871
7/7/2015,-0.466,0.064,0.753
2/7/2013,1.008,1.334,1.962
12/30/2010,1.839,2.69,3.273
12/28/2017,-0.768,-0.125,0.749
9/10/2010,1.452,2.093,2.571
2/12/2013,1.066,1.4,2.041
5/22/2008,4.397,4.351,4.315
6/16/2011,2.3,2.555,2.859
1/1/2013,0.74,0.97,1.539
10/24/2008,2.805,3.011,3.404
5/16/2018,-0.485,0.123,0.745
7/17/2017,-0.641,0.042,0.709
3/2/2011,2.293,3.099,3.361
10/19/2016,-0.679,-0.31,0.256
10/27/2014,0.032,0.346,1.251
9/11/2013,1.275,2.133,2.727
5/30/2017,-0.711,-0.148,0.491
5/7/2014,0.653,1.244,1.944
3/1/2013,1.107,1.356,1.882
4/10/2013,1.009,1.359,1.733
1/26/2009,1.557,2.474,3.127
4/2/2009,1.147,2.376,3.118
4/6/2010,1.574,2.538,3.231
4/10/2014,0.674,1.298,2.065
7/12/2010,1.453,2.112,2.659
12/23/2009,1.659,2.336,3.229
11/21/2012,0.747,1.005,1.528
11/12/2008,2.449,2.749,3.456
1/31/2018,-0.742,0.041,0.922
6/20/2016,-0.585,-0.068,0.583
2/12/2015,-0.297,-0.002,0.538
6/14/2012,0.892,1.145,1.545
10/17/2013,1.058,1.82,2.476
8/27/2008,4.298,4.165,4.11
6/11/2013,0.965,1.484,1.978
2/20/2015,-0.299,0.102,0.636
2/1/2016,-0.541,-0.019,0.619
12/25/2017,-0.774,-0.12,0.747
12/31/2012,0.74,0.97,1.539
11/2/2016,-0.732,-0.333,0.245
11/11/2015,-0.431,0.127,0.822
6/24/2009,1.215,2.682,3.522
7/19/2017,-0.693,-0.046,0.648
4/8/2016,-0.637,-0.143,0.484
3/9/2009,1.116,2.023,2.723
9/15/2010,1.442,2.133,2.617
3/14/2014,0.837,1.387,2.087
6/12/2008,4.653,4.646,4.442
3/21/2011,2.285,3.038,3.316
1/30/2009,1.477,2.448,3.096
7/8/2016,-0.64,-0.286,0.145
1/14/2011,1.849,2.772,3.218
11/11/2010,1.364,2.148,2.772
5/15/2008,4.165,4.161,4.168
4/24/2012,1.14,1.422,1.793
4/4/2018,-0.484,0.085,0.681
8/23/2012,0.907,1.042,1.42
1/19/2015,0.002,0.041,0.757
5/17/2010,1.197,2.042,2.726
3/12/2013,1.151,1.402,1.967
10/25/2011,1.336,1.594,1.947
6/28/2010,1.412,2.076,2.635
3/3/2011,2.362,3.185,3.456
11/12/2012,0.662,0.891,1.401
2/25/2011,2.188,3.002,3.341
10/17/2011,1.318,1.588,1.941
9/7/2010,1.346,1.92,2.415
1/29/2016,-0.554,-0.037,0.612
4/1/2015,-0.31,0.034,0.416
7/1/2008,4.688,4.701,4.485
6/10/2014,0.512,1.038,1.821
3/5/2015,-0.092,0.315,0.805
12/11/2013,0.862,1.633,2.331
10/16/2012,0.721,0.993,1.567
4/9/2009,1.118,2.43,3.258
4/12/2011,2.295,3.051,3.361
4/18/2017,-0.666,-0.126,0.529
5/1/2017,-0.649,-0.073,0.587
3/14/2016,-0.613,-0.029,0.633
7/24/2014,0.298,0.778,1.68
10/15/2014,0.025,0.296,1.153
12/9/2010,1.75,2.587,3.168
3/8/2013,1.192,1.47,2.011
12/7/2016,-0.661,-0.082,0.586
3/25/2016,-0.626,-0.113,0.515
10/2/2014,0.149,0.55,1.447
11/3/2016,-0.729,-0.314,0.266
8/2/2010,1.457,2.227,2.777
11/11/2016,-0.67,-0.144,0.478
4/3/2018,-0.481,0.09,0.684
5/24/2017,-0.701,-0.118,0.528
3/9/2012,1.038,1.402,1.824
12/31/2013,1.087,1.782,2.504
11/13/2014,-0.017,0.255,1.149
3/10/2010,1.642,2.543,3.244
4/20/2015,-0.334,-0.066,0.256
6/12/2017,-0.726,-0.234,0.386
1/25/2016,-0.521,0.015,0.698
1/31/2014,0.95,1.515,2.208
5/22/2012,0.908,1.167,1.539
6/16/2009,1.278,2.703,3.52
10/7/2011,1.285,1.513,1.839
5/19/2017,-0.68,-0.13,0.518
5/15/2013,0.793,1.3,1.784
8/26/2016,-0.626,-0.346,0.116
4/24/2013,0.782,1.162,1.559
1/23/2017,-0.567,-0.004,0.663
8/5/2014,0.287,0.801,1.726
9/16/2011,1.203,1.517,1.868
4/10/2015,-0.325,-0.005,0.363
12/21/2015,-0.446,0.273,0.995
7/21/2009,0.81,2.519,3.359
8/11/2008,4.462,4.228,4.14
4/21/2010,1.505,2.427,3.148
12/3/2008,1.956,2.177,2.652
6/17/2015,-0.167,0.461,1.03
7/20/2011,2.14,2.491,2.791
9/16/2016,-0.625,-0.239,0.289
9/25/2015,-0.483,0.066,0.731
12/7/2017,-0.831,-0.227,0.68
3/3/2010,1.559,2.48,3.146
1/26/2017,-0.539,0.082,0.757
8/20/2010,1.245,1.849,2.364
4/25/2012,1.167,1.457,1.848
3/2/2016,-0.604,-0.081,0.547
3/6/2009,1.091,2.012,2.725
7/29/2013,1.072,1.67,2.195
1/9/2014,1.041,1.729,2.464
10/20/2014,0.028,0.338,1.215
2/16/2015,-0.342,-0.022,0.498
3/6/2013,1.184,1.462,1.988
2/23/2018,-0.447,0.191,0.819
9/3/2015,-0.475,0.075,0.712
7/16/2015,-0.373,0.202,0.849
9/17/2014,0.175,0.607,1.556
8/24/2015,-0.549,-0.054,0.537
7/16/2009,0.806,2.488,3.321
5/6/2015,-0.194,0.296,0.764
10/10/2017,-0.658,0.026,0.914
9/4/2008,4.222,4.068,3.959
11/6/2009,0.641,2.579,3.3
6/10/2016,-0.625,-0.351,0.266
7/22/2008,4.717,4.674,4.428
4/12/2013,0.973,1.313,1.686
7/19/2010,1.453,2.155,2.698
7/10/2012,0.822,0.97,1.333
8/11/2011,1.388,1.715,2.081
11/12/2015,-0.403,0.198,0.933
4/14/2016,-0.603,-0.096,0.564
7/15/2008,4.718,4.529,4.161
11/22/2016,-0.685,-0.183,0.477
4/2/2014,0.798,1.45,2.159
10/22/2015,-0.459,0.073,0.691
3/26/2014,0.771,1.399,2.128
12/30/2011,0.845,1.041,1.622
10/9/2012,0.682,0.954,1.49
9/19/2011,1.177,1.458,1.797
3/31/2017,-0.597,-0.049,0.605
7/29/2011,1.995,2.222,2.506
9/1/2014,0.177,0.578,1.408
10/12/2011,1.427,1.705,2.035
1/15/2010,1.608,2.301,3.241
11/28/2012,0.724,0.949,1.466
12/23/2010,1.789,2.638,3.216
3/28/2016,-0.626,-0.113,0.515
1/21/2011,1.951,2.914,3.346
8/20/2013,1.171,1.814,2.387
11/17/2008,2.377,2.695,3.374
8/14/2009,1.031,2.77,3.461
5/8/2008,4.006,3.985,4.07
8/27/2015,-0.516,0.058,0.69
1/28/2011,2.013,3.035,3.373
2/10/2012,1.013,1.251,1.86
11/15/2013,0.867,1.594,2.262
1/16/2015,0.003,0.047,0.757
5/22/2017,-0.697,-0.125,0.527
5/26/2008,4.434,4.328,4.262
9/9/2015,-0.454,0.001,0.652
3/8/2017,-0.604,0.009,0.702
3/22/2011,2.303,3.051,3.353
5/25/2015,-0.275,0.256,0.786
6/13/2017,-0.706,-0.218,0.412
7/6/2015,-0.45,0.146,0.881
10/11/2011,1.363,1.621,1.96
3/17/2015,-0.208,0.132,0.621
1/22/2018,-0.755,-0.004,0.887
1/9/2015,0.018,0.089,0.827
3/18/2016,-0.638,-0.115,0.544
11/19/2012,0.708,0.935,1.457
11/4/2013,1.01,1.681,2.289
12/29/2009,1.714,2.405,3.291
11/8/2012,0.7,0.896,1.392
6/18/2010,1.391,2.117,2.697
4/29/2009,1.069,2.39,3.189
7/4/2017,-0.679,-0.058,0.62
4/25/2013,0.794,1.175,1.57
5/29/2018,-0.594,-0.133,0.452
3/8/2016,-0.625,-0.125,0.497
8/3/2016,-0.647,-0.372,0.132
10/7/2015,-0.45,0.053,0.677
12/4/2012,0.729,0.989,1.513
5/24/2013,0.793,1.291,1.818
11/10/2017,-0.819,-0.129,0.838
9/30/2013,1.117,1.83,2.431
6/30/2010,1.424,2.117,2.666
7/12/2012,0.806,0.957,1.295
8/31/2012,0.858,1.017,1.412
5/13/2014,0.623,1.183,1.897
5/29/2008,4.518,4.476,4.449
5/29/2017,-0.708,-0.14,0.501
5/18/2018,-0.495,0.109,0.727
12/1/2010,1.606,2.45,3.018
6/21/2016,-0.576,-0.058,0.582
4/17/2018,-0.532,0.055,0.663
4/28/2011,2.807,3.088,3.206
2/2/2011,2.041,3.055,3.44
10/1/2012,0.682,0.988,1.49
7/1/2015,-0.281,0.384,1.049
10/23/2015,-0.454,0.09,0.712
5/7/2010,1.241,2.052,2.681
1/4/2017,-0.624,-0.091,0.6
11/25/2010,1.507,2.33,2.934
3/16/2017,-0.556,0.089,0.765
9/4/2017,-0.662,-0.043,0.849
11/27/2015,-0.488,0.083,0.726
5/13/2009,1.23,2.719,3.544
12/5/2016,-0.668,-0.064,0.616
8/15/2012,0.953,1.146,1.525
9/7/2011,1.318,1.57,1.908
6/24/2013,1.17,1.802,2.282
6/30/2011,2.328,2.638,2.9
3/4/2011,2.331,3.155,3.423
12/27/2010,1.81,2.684,3.291
3/1/2016,-0.598,-0.119,0.489
1/30/2012,0.921,1.136,1.718
11/14/2011,0.967,1.245,1.65
2/4/2009,1.451,2.426,3.108
3/24/2009,1.206,2.342,3.128
11/14/2012,0.677,0.916,1.425
12/31/2008,1.5,1.777,2.413
9/2/2011,1.418,1.72,2.015
10/5/2015,-0.482,0.026,0.66
5/6/2010,1.334,2.167,2.789
4/22/2009,1.066,2.334,3.127
10/2/2015,-0.499,-0.013,0.614
6/8/2017,-0.706,-0.194,0.418
6/16/2010,1.296,1.975,2.564
3/25/2009,1.173,2.34,3.138
5/22/2014,0.568,1.125,1.864
6/18/2009,1.234,2.697,3.552
12/24/2015,-0.421,0.335,1.066
12/10/2014,0.004,0.167,1.008
8/12/2010,1.271,1.911,2.464
11/13/2017,-0.818,-0.133,0.833
12/25/2015,-0.421,0.335,1.066
3/23/2016,-0.637,-0.133,0.521
7/21/2010,1.4,2.116,2.692
1/8/2010,1.657,2.374,3.313
5/8/2014,0.623,1.207,1.921
4/7/2010,1.544,2.509,3.204
2/12/2018,-0.743,0.033,0.949
5/21/2012,0.873,1.108,1.483
2/3/2011,2.029,3.035,3.439
5/28/2010,1.254,2.063,2.682
6/4/2013,0.945,1.472,1.969
11/26/2012,0.748,0.972,1.498
5/2/2017,-0.645,-0.059,0.603
8/13/2015,-0.455,0.076,0.66
9/1/2017,-0.667,-0.056,0.835
3/7/2016,-0.608,-0.086,0.548
9/24/2013,1.165,1.903,2.498
10/7/2014,0.128,0.527,1.423
9/14/2011,1.159,1.471,1.858
5/23/2011,2.568,2.726,2.862
6/6/2017,-0.704,-0.182,0.426
8/16/2012,0.905,1.112,1.505
5/19/2014,0.566,1.118,1.831
5/11/2009,1.199,2.637,3.45
4/20/2009,0.989,2.255,3.094
2/2/2017,-0.54,0.063,0.71
5/22/2009,1.297,2.848,3.677
7/18/2014,0.288,0.772,1.658
9/10/2012,0.819,1.033,1.481
4/27/2011,2.835,3.132,3.242
12/12/2012,0.712,0.923,1.453
9/11/2008,4.155,3.989,3.871
9/17/2012,0.799,1.128,1.631
1/10/2011,1.789,2.664,3.167
2/21/2011,2.124,2.985,3.337
8/1/2012,0.992,1.09,1.396
8/9/2011,1.589,1.882,2.222
5/5/2014,0.62,1.211,1.924
12/18/2008,1.644,1.91,2.504
5/27/2016,-0.59,-0.163,0.524
11/12/2014,-0.027,0.256,1.147
7/22/2009,0.806,2.516,3.357
7/29/2008,4.621,4.562,4.374
7/15/2011,2.044,2.382,2.688
12/25/2013,1.075,1.738,2.454
6/22/2011,2.312,2.571,2.854
4/30/2009,1.096,2.434,3.244
9/2/2010,1.368,1.925,2.421
10/4/2013,1.122,1.904,2.525
6/28/2016,-0.643,-0.21,0.356
2/2/2016,-0.547,-0.031,0.591
10/7/2010,1.4,2.03,2.483
11/7/2011,1.165,1.387,1.728
8/23/2011,1.435,1.73,2.029
6/1/2012,0.731,0.899,1.175
5/23/2018,-0.508,0.057,0.663
5/4/2016,-0.605,-0.139,0.556
2/22/2012,1.041,1.294,1.913
3/10/2015,-0.162,0.236,0.738
9/13/2010,1.461,2.125,2.629
4/1/2009,1.057,2.244,3.022
5/11/2011,2.657,2.928,3.072
10/8/2009,0.797,2.493,3.132
10/28/2009,0.648,2.542,3.236
9/10/2008,4.206,4.013,3.88
11/19/2010,1.525,2.361,2.952
4/9/2018,-0.479,0.092,0.692
11/4/2008,2.761,3.014,3.628
5/23/2016,-0.598,-0.187,0.537
9/13/2013,1.218,2.048,2.654
9/14/2016,-0.62,-0.232,0.286
12/8/2016,-0.676,-0.07,0.643
6/21/2012,0.851,1.112,1.515
8/1/2017,-0.678,0.027,0.713
10/27/2008,2.754,2.962,3.379
1/26/2015,0.005,0.056,0.718
9/14/2010,1.432,2.095,2.579
7/31/2008,4.535,4.391,4.216
1/16/2013,0.919,1.172,1.747
3/14/2012,1.127,1.524,1.965
2/7/2017,-0.557,0.031,0.68
2/23/2017,-0.646,-0.093,0.608
5/15/2014,0.571,1.097,1.797
10/20/2008,3.22,3.379,3.652
5/17/2016,-0.601,-0.194,0.506
7/4/2013,1.102,1.637,2.144
4/12/2010,1.567,2.527,3.236
1/14/2013,0.922,1.194,1.778
7/17/2015,-0.385,0.184,0.826
5/12/2011,2.651,2.922,3.063
8/6/2009,1.108,2.762,3.451
8/18/2016,-0.641,-0.371,0.072
7/16/2014,0.299,0.801,1.719
12/30/2015,-0.439,0.303,1.004
2/28/2011,2.21,3.01,3.335
4/6/2015,-0.299,0.044,0.429
3/13/2009,1.119,2.116,2.897
6/9/2014,0.518,1.041,1.82
7/4/2014,0.288,0.849,1.827
4/24/2017,-0.621,-0.061,0.604
5/21/2013,0.832,1.327,1.839
11/7/2013,0.961,1.701,2.353
3/31/2015,-0.308,0.042,0.424
8/22/2013,1.256,1.951,2.49
12/21/2012,0.756,1.012,1.599
5/20/2011,2.627,2.784,2.913
1/15/2014,1.086,1.736,2.432
6/13/2011,2.4,2.612,2.865
5/17/2013,0.788,1.26,1.75
12/6/2011,0.926,1.16,1.79
2/13/2013,1.145,1.486,2.118
9/28/2011,1.231,1.54,1.924
2/4/2015,-0.064,-0.038,0.662
3/11/2013,1.179,1.446,1.985
10/4/2012,0.644,0.937,1.47
3/11/2011,2.217,3.064,3.372
3/5/2013,1.185,1.46,1.99
8/14/2017,-0.677,-0.022,0.625
9/10/2014,0.181,0.584,1.506
1/8/2015,0.02,0.1,0.861
6/14/2013,0.946,1.426,1.922
11/16/2016,-0.683,-0.118,0.503
9/26/2013,1.142,1.865,2.48
8/1/2014,0.284,0.779,1.694
5/16/2016,-0.604,-0.199,0.503
4/23/2013,0.792,1.172,1.566
9/18/2014,0.201,0.651,1.599
1/19/2018,-0.756,-0.022,0.867
5/22/2018,-0.495,0.096,0.704
5/31/2011,2.521,2.717,2.907
9/19/2008,4.052,3.964,3.922
12/15/2016,-0.691,-0.087,0.64
10/2/2009,0.816,2.552,3.226
8/10/2012,0.931,1.067,1.427
4/15/2015,-0.335,-0.045,0.281
11/24/2014,0.003,0.235,1.102
3/22/2017,-0.553,0.043,0.699
6/4/2012,0.716,0.881,1.15
1/8/2013,0.746,1.103,1.711
6/6/2013,0.942,1.475,1.975
1/17/2012,0.871,1.038,1.631
2/3/2017,-0.544,0.056,0.71
3/28/2018,-0.462,0.117,0.704
6/17/2013,0.953,1.43,1.927
9/19/2013,1.18,1.963,2.598
11/19/2008,2.429,2.721,3.323
12/16/2016,-0.679,-0.077,0.64
1/2/2009,1.455,1.755,2.427
10/19/2012,0.815,1.113,1.647
1/29/2013,1.024,1.355,1.928
5/11/2017,-0.628,-0.035,0.628
6/7/2011,2.564,2.779,2.976
5/21/2015,-0.269,0.272,0.82
4/27/2010,1.396,2.289,2.986
12/18/2012,0.753,1.008,1.561
2/7/2014,0.937,1.531,2.229
10/5/2009,0.806,2.524,3.186
4/3/2013,1.022,1.421,1.834
5/25/2017,-0.7,-0.129,0.519
6/18/2015,-0.21,0.413,0.983
9/6/2010,1.397,1.979,2.482
6/1/2010,1.3,2.069,2.633
7/28/2015,-0.385,0.135,0.746
4/19/2011,2.335,3.003,3.251
10/19/2010,1.507,2.185,2.67
9/3/2014,0.197,0.608,1.467
6/7/2016,-0.62,-0.272,0.386
10/21/2009,0.827,2.611,3.297
8/10/2017,-0.686,-0.04,0.609
5/21/2014,0.582,1.141,1.869
4/6/2012,1.177,1.481,1.861
7/1/2011,2.377,2.675,2.928
3/14/2011,2.218,3.035,3.369
11/26/2014,-0.01,0.192,1.041
1/4/2013,0.8,1.129,1.729
8/10/2009,1.102,2.825,3.531
1/19/2012,0.917,1.116,1.7
8/21/2012,0.934,1.133,1.551
10/14/2010,1.455,2.078,2.555
1/6/2009,1.508,1.82,2.528
8/31/2017,-0.676,-0.071,0.804
1/27/2016,-0.508,0.034,0.7
4/8/2013,0.968,1.308,1.667
3/7/2018,-0.439,0.211,0.825
6/9/2017,-0.711,-0.203,0.415
4/15/2010,1.522,2.489,3.213
8/22/2016,-0.638,-0.349,0.123
8/21/2008,4.344,4.205,4.09
1/17/2018,-0.763,-0.028,0.855
1/7/2010,1.698,2.401,3.325
5/27/2008,4.453,4.372,4.316
12/12/2016,-0.689,-0.087,0.645
6/8/2009,1.396,2.895,3.745
8/19/2009,0.978,2.693,3.375
12/7/2010,1.648,2.497,3.15
9/6/2013,1.265,2.106,2.66
2/11/2013,1.046,1.369,2
5/6/2009,1.216,2.603,3.406
2/25/2016,-0.623,-0.161,0.459
3/25/2014,0.812,1.437,2.156
9/5/2014,0.145,0.515,1.414
3/25/2011,2.311,3.032,3.375
12/6/2013,0.927,1.701,2.377
9/27/2012,0.698,0.981,1.479
12/29/2016,-0.62,-0.124,0.543
7/12/2016,-0.627,-0.273,0.202
11/9/2012,0.661,0.882,1.387
7/14/2015,-0.395,0.184,0.862
3/7/2013,1.207,1.464,1.973
5/26/2016,-0.6,-0.149,0.529
5/16/2017,-0.651,-0.09,0.589
2/1/2018,-0.747,0.047,0.949
7/21/2017,-0.708,-0.089,0.615
4/13/2011,2.316,3.056,3.362
12/10/2010,1.755,2.588,3.155
11/7/2014,-0.004,0.295,1.189
7/23/2008,4.729,4.705,4.464
4/27/2009,1.073,2.37,3.182
10/22/2014,0.028,0.336,1.234
3/14/2013,1.12,1.366,1.965
5/13/2015,-0.315,0.223,0.761
11/2/2009,0.652,2.536,3.22
1/18/2010,1.594,2.285,3.23
8/8/2011,1.631,1.907,2.253
9/17/2010,1.423,2.113,2.601
6/10/2013,0.941,1.459,1.96
7/20/2010,1.42,2.123,2.677
9/7/2015,-0.469,0.007,0.63
7/15/2013,1.04,1.589,2.124
1/31/2012,0.886,1.111,1.708
8/23/2017,-0.66,-0.033,0.627
6/30/2008,4.67,4.708,4.518
10/29/2012,0.761,0.991,1.518
6/27/2011,2.214,2.473,2.793
6/5/2015,-0.194,0.386,0.981
12/19/2016,-0.677,-0.076,0.639
7/24/2017,-0.707,-0.077,0.632
10/12/2017,-0.68,-0.016,0.911
3/3/2015,-0.116,0.279,0.765
5/15/2017,-0.656,-0.078,0.582
2/5/2018,-0.742,0.051,0.972
12/3/2012,0.736,0.994,1.519
11/26/2010,1.537,2.368,2.981
6/2/2009,1.225,2.854,3.785
10/9/2009,0.847,2.577,3.198
4/30/2014,0.639,1.231,1.964
1/30/2014,0.974,1.554,2.254
5/3/2010,1.5,2.381,3.027
1/7/2013,0.797,1.141,1.742
4/20/2018,-0.497,0.131,0.753
1/15/2016,-0.529,0.062,0.757
6/22/2010,1.433,2.149,2.724
8/5/2015,-0.393,0.166,0.793
2/17/2016,-0.607,-0.114,0.53
4/6/2009,1.202,2.489,3.239
4/16/2014,0.652,1.24,1.998
3/25/2013,1.054,1.462,1.881
10/22/2013,1.032,1.751,2.36
8/17/2015,-0.456,0.065,0.663
12/15/2010,1.828,2.686,3.265
9/17/2015,-0.428,0.173,0.86
8/3/2011,1.942,2.135,2.428
3/11/2010,1.667,2.57,3.256
1/22/2013,0.944,1.23,1.821
1/19/2017,-0.566,-0.004,0.668
12/15/2011,0.834,1.056,1.638
1/25/2011,1.941,2.934,3.353
1/3/2012,0.975,1.129,1.707
4/25/2018,-0.482,0.168,0.795
7/11/2017,-0.693,-0.044,0.688
8/22/2017,-0.66,-0.027,0.633
12/10/2013,0.855,1.641,2.338
5/5/2015,-0.213,0.238,0.675
8/28/2008,4.322,4.189,4.1
5/4/2015,-0.246,0.165,0.56
4/4/2016,-0.641,-0.144,0.474
7/5/2016,-0.646,-0.37,0.099
8/30/2013,1.243,1.93,2.447
9/18/2008,3.863,3.761,3.762
8/5/2016,-0.657,-0.402,0.115
3/5/2012,1.017,1.409,1.85
2/6/2015,-0.159,0.193,0.661
1/14/2016,-0.522,0.072,0.783
5/13/2008,4.082,4.044,4.109
10/27/2009,0.654,2.563,3.266
5/5/2017,-0.616,0.011,0.653
11/16/2015,-0.422,0.151,0.851
2/10/2010,1.531,2.565,3.272
5/14/2010,1.202,2.031,2.727
2/8/2013,1.039,1.36,1.976
12/16/2008,1.878,2.145,2.743
7/22/2011,2.18,2.531,2.818
2/3/2014,0.964,1.531,2.212
3/6/2017,-0.607,-0.011,0.67
1/22/2016,-0.52,0.03,0.716
6/9/2009,1.39,2.884,3.721
3/22/2013,1.062,1.477,1.886
5/1/2015,-0.266,0.104,0.47
5/13/2010,1.256,2.143,2.835
10/8/2013,1.109,1.879,2.491
8/6/2015,-0.439,0.127,0.761
8/28/2017,-0.663,-0.054,0.811
11/9/2017,-0.82,-0.139,0.822
8/14/2015,-0.451,0.084,0.677
9/19/2016,-0.634,-0.244,0.301
6/6/2014,0.528,1.036,1.795
11/5/2013,1.043,1.767,2.373
4/5/2016,-0.648,-0.165,0.439
10/18/2011,1.281,1.532,1.876
9/22/2017,-0.682,0.005,0.89
9/28/2015,-0.493,0.028,0.685
6/13/2013,0.95,1.443,1.945
8/20/2008,4.262,4.133,4.044
11/5/2012,0.738,0.942,1.433
5/14/2012,0.935,1.097,1.449
5/20/2009,1.282,2.813,3.61
9/7/2017,-0.676,-0.09,0.767
4/7/2016,-0.636,-0.146,0.465
8/16/2011,1.555,1.873,2.21
1/13/2015,0.053,0.112,0.827
12/18/2014,0.02,0.148,0.972
3/24/2010,1.579,2.481,3.155
2/18/2013,1.094,1.44,2.041
3/3/2016,-0.614,-0.096,0.518
2/24/2009,0.982,1.963,2.696
10/26/2009,0.691,2.652,3.362
11/27/2013,0.86,1.569,2.261
1/22/2010,1.568,2.241,3.173
3/30/2017,-0.587,-0.029,0.62
6/16/2016,-0.609,-0.144,0.455
4/3/2012,1.284,1.609,1.979
8/24/2009,1.068,2.822,3.47
8/21/2017,-0.662,-0.035,0.61
10/3/2013,1.165,1.917,2.517
1/29/2009,1.512,2.445,3.06
3/22/2018,-0.462,0.135,0.729
3/23/2015,-0.305,0.032,0.417
1/21/2016,-0.537,-0.008,0.657
12/28/2016,-0.625,-0.103,0.575
9/29/2017,-0.681,-0.007,0.922
11/11/2014,-0.029,0.26,1.158
4/2/2010,1.55,2.499,3.199
9/22/2010,1.39,2.071,2.558
10/6/2008,3.382,3.404,3.436
2/2/2018,-0.738,0.07,0.996
4/15/2009,0.995,2.286,3.119
4/3/2015,-0.299,0.044,0.429
9/13/2011,1.065,1.382,1.77
1/2/2018,-0.775,-0.08,0.798
10/15/2013,1.081,1.863,2.519
1/24/2014,1.004,1.595,2.275
10/1/2015,-0.495,0.02,0.669
10/8/2008,3.179,3.219,3.239
10/3/2017,-0.671,0.011,0.947
6/11/2010,1.275,1.972,2.517
5/14/2014,0.587,1.122,1.84
10/24/2016,-0.711,-0.366,0.153
10/15/2010,1.494,2.149,2.648
3/21/2018,-0.438,0.188,0.79
3/12/2009,1.138,2.113,2.862
1/16/2017,-0.562,-0.025,0.61
7/6/2012,0.775,0.947,1.327
9/16/2013,1.198,1.989,2.597
3/9/2010,1.593,2.494,3.177
7/3/2013,1.104,1.678,2.153
6/23/2010,1.422,2.125,2.682
3/12/2012,1.026,1.36,1.766
6/8/2012,0.85,1.074,1.425
10/12/2012,0.672,0.929,1.469
2/13/2015,-0.357,-0.038,0.496
12/17/2008,1.651,1.906,2.496
12/26/2013,1.075,1.738,2.454
12/31/2014,0.024,0.132,0.926
3/15/2016,-0.6,-0.005,0.654
3/17/2009,1.08,2.117,2.918
1/21/2014,1.037,1.643,2.337
11/18/2014,-0.017,0.235,1.113
10/14/2014,0.039,0.383,1.271
5/12/2014,0.631,1.205,1.929
4/25/2011,2.891,3.163,3.271
9/15/2017,-0.667,-0.008,0.867
11/7/2016,-0.733,-0.307,0.264
12/12/2017,-0.825,-0.209,0.702
5/10/2012,0.99,1.183,1.557
9/27/2010,1.298,1.963,2.447
1/1/2015,0.024,0.132,0.926
6/1/2016,-0.594,-0.193,0.501
5/21/2009,1.27,2.808,3.61
8/1/2016,-0.662,-0.417,0.053
12/4/2013,0.961,1.699,2.37
7/5/2010,1.387,2.049,2.599
2/26/2010,1.583,2.518,3.174
7/23/2010,1.386,2.14,2.719
2/2/2012,1.014,1.233,1.817
5/7/2008,4.028,4.034,4.13
10/24/2011,1.348,1.596,1.954
12/6/2017,-0.833,-0.235,0.673
6/26/2009,1.169,2.624,3.457
2/4/2013,1.019,1.355,1.969
10/23/2014,0.041,0.384,1.293
8/11/2015,-0.519,0.01,0.632
1/30/2018,-0.743,0.043,0.936
3/19/2013,1.063,1.543,1.981
6/27/2008,4.537,4.587,4.429
7/22/2014,0.292,0.772,1.668
10/22/2012,0.799,1.104,1.646
2/24/2012,1.048,1.271,1.917
11/30/2010,1.578,2.373,2.943
6/16/2017,-0.696,-0.157,0.461
2/25/2009,0.997,1.999,2.728
5/17/2018,-0.493,0.121,0.748
8/25/2014,0.205,0.658,1.511
1/17/2014,1.055,1.678,2.366
7/9/2008,4.782,4.652,4.369
2/19/2018,-0.743,0.024,0.933
10/16/2013,1.094,1.893,2.551
2/12/2014,0.949,1.562,2.274
12/3/2009,0.407,2.463,3.234
11/10/2010,1.39,2.176,2.772
5/6/2016,-0.604,-0.162,0.513
7/3/2015,-0.447,0.153,0.895
5/31/2013,0.938,1.434,1.929
10/19/2017,-0.702,-0.076,0.83
3/15/2010,1.668,2.562,3.247
7/7/2014,0.288,0.816,1.79
7/28/2017,-0.686,0.001,0.701
8/29/2008,4.32,4.184,4.065
8/31/2016,-0.635,-0.355,0.105
5/26/2010,1.122,1.947,2.605
2/14/2014,0.946,1.552,2.264
8/18/2015,-0.472,0.055,0.663
6/12/2015,-0.142,0.466,1.023
7/13/2016,-0.628,-0.291,0.168
5/5/2008,4.037,4.053,4.13
4/18/2013,0.824,1.198,1.57
11/20/2008,2.226,2.516,3.083
6/30/2017,-0.627,-0.002,0.659
6/10/2008,4.74,4.633,4.336
2/23/2011,2.133,2.975,3.324
2/24/2011,2.121,2.95,3.279
10/5/2011,1.19,1.417,1.729
4/26/2013,0.798,1.18,1.57
7/14/2008,4.778,4.594,4.231
9/4/2013,1.288,2.062,2.592
11/2/2010,1.394,2.25,2.777
11/30/2012,0.726,0.963,1.487
5/17/2011,2.647,2.9,3.034
7/13/2009,0.838,2.434,3.234
5/7/2013,0.834,1.32,1.759
5/18/2015,-0.339,0.198,0.744
8/8/2016,-0.659,-0.399,0.119
3/21/2017,-0.535,0.1,0.764
3/1/2011,2.27,3.052,3.348
11/18/2008,2.394,2.705,3.357
1/5/2010,1.756,2.457,3.355
11/9/2015,-0.439,0.143,0.849
2/26/2013,1.045,1.346,1.939
3/29/2011,2.304,3.043,3.385
1/11/2013,0.953,1.232,1.827
1/23/2014,1.034,1.646,2.327
12/31/2009,1.714,2.412,3.292
6/20/2008,4.696,4.721,4.466
12/1/2011,0.907,1.194,1.809
11/2/2015,-0.452,0.027,0.662
7/6/2011,2.333,2.633,2.867
11/2/2012,0.73,0.95,1.472
2/28/2013,1.032,1.314,1.883
6/3/2008,4.432,4.398,4.388
7/29/2014,0.297,0.762,1.651
12/22/2010,1.813,2.66,3.223
12/26/2011,0.848,1.094,1.72
10/25/2010,1.535,2.33,2.789
2/15/2016,-0.611,-0.14,0.504
5/29/2014,0.536,1.053,1.795
6/22/2012,0.858,1.14,1.546
11/5/2015,-0.451,0.09,0.759
9/23/2011,1.056,1.313,1.683
6/2/2017,-0.699,-0.186,0.425
5/16/2014,0.577,1.13,1.836
6/20/2014,0.504,1.042,1.817
8/27/2010,1.264,1.774,2.224
5/5/2011,2.709,3.02,3.176
5/9/2017,-0.601,0.015,0.651
3/10/2016,-0.602,-0.044,0.585
10/10/2016,-0.651,-0.268,0.302
11/6/2013,1.046,1.781,2.399
7/13/2015,-0.373,0.21,0.903
12/29/2014,0.027,0.135,0.943
5/24/2018,-0.515,0.037,0.633
12/12/2008,1.963,2.255,2.87
2/19/2014,0.86,1.439,2.177
8/31/2009,0.983,2.698,3.313
7/28/2011,2.01,2.278,2.559
3/23/2009,1.181,2.276,3.049
3/16/2018,-0.462,0.146,0.744
7/1/2013,1.162,1.752,2.215
11/29/2010,1.589,2.405,2.989
9/26/2017,-0.682,-0.005,0.882
4/3/2014,0.78,1.425,2.146
2/8/2016,-0.571,-0.12,0.462
11/1/2011,1.181,1.366,1.703
12/10/2009,0.452,2.413,3.224
2/13/2014,0.922,1.532,2.248
10/15/2012,0.701,0.947,1.494
3/15/2011,2.11,2.902,3.257
10/29/2010,1.395,2.293,2.858
1/24/2011,1.931,2.935,3.347
10/16/2009,0.832,2.611,3.272
4/7/2014,0.747,1.372,2.092
5/28/2018,-0.561,-0.083,0.495
5/3/2017,-0.645,-0.063,0.584
9/4/2009,0.823,2.649,3.303
4/4/2012,1.238,1.552,1.942
2/19/2013,1.121,1.473,2.049
6/7/2012,0.886,1.133,1.454
11/30/2015,-0.474,0.105,0.75
5/10/2017,-0.614,-0.023,0.625
9/11/2009,0.821,2.626,3.335
11/4/2015,-0.451,0.049,0.715
8/6/2012,0.996,1.103,1.407
8/31/2011,1.476,1.79,2.113
8/26/2011,1.433,1.724,2.038
3/21/2012,1.198,1.615,2.072
12/6/2012,0.685,0.915,1.438
2/1/2012,0.943,1.144,1.753
11/24/2016,-0.677,-0.157,0.524
4/6/2017,-0.604,-0.063,0.574
11/22/2010,1.485,2.313,2.918
3/1/2017,-0.619,-0.06,0.619
5/12/2015,-0.268,0.291,0.828
11/16/2017,-0.862,-0.202,0.742
4/15/2011,2.32,3.048,3.351
4/17/2017,-0.671,-0.137,0.516
5/19/2009,1.242,2.763,3.577
9/21/2017,-0.686,-0.007,0.879
7/11/2012,0.826,0.973,1.31
11/5/2014,0.001,0.309,1.213
11/13/2008,2.427,2.731,3.415
10/24/2017,-0.696,-0.032,0.89
7/20/2015,-0.383,0.173,0.81
1/23/2013,0.917,1.193,1.785
1/26/2018,-0.747,0.036,0.909
11/8/2017,-0.816,-0.167,0.783
9/18/2013,1.207,2.045,2.668
6/24/2010,1.384,2.07,2.643
9/23/2016,-0.657,-0.308,0.209
4/9/2014,0.748,1.384,2.131
2/10/2017,-0.552,0.017,0.665
2/14/2017,-0.522,0.096,0.761
9/23/2009,0.865,2.75,3.446
4/30/2013,0.835,1.215,1.616
3/13/2014,0.84,1.391,2.093
5/15/2015,-0.322,0.214,0.752
2/1/2010,1.64,2.305,3.182
11/17/2010,1.457,2.284,2.884
10/2/2017,-0.673,0.004,0.93
8/12/2011,1.498,1.835,2.176
12/19/2014,0.024,0.164,0.987
10/31/2016,-0.74,-0.34,0.26
9/20/2013,1.181,1.965,2.605
10/9/2017,-0.662,0.022,0.918
12/16/2009,1.699,2.39,3.223
4/27/2018,-0.541,0.087,0.718
1/16/2018,-0.761,-0.043,0.832
11/9/2011,1.06,1.28,1.62
10/10/2012,0.709,0.969,1.49
2/2/2009,1.432,2.386,3.062
4/26/2018,-0.523,0.115,0.748
8/22/2011,1.405,1.699,2.01
1/7/2016,-0.502,0.165,0.862
5/25/2012,0.824,1.081,1.435
8/3/2015,-0.391,0.128,0.739
7/28/2014,0.299,0.775,1.671
8/8/2013,1.068,1.646,2.192
9/26/2016,-0.665,-0.339,0.175
4/1/2014,0.795,1.433,2.128
11/3/2010,1.383,2.22,2.753
8/25/2011,1.474,1.773,2.084
11/19/2009,0.564,2.47,3.266
6/5/2008,4.484,4.414,4.336
6/7/2013,0.951,1.458,1.945
12/23/2013,1.075,1.738,2.454
3/3/2017,-0.596,0.005,0.694
1/30/2013,1.044,1.415,1.99
9/23/2015,-0.481,0.038,0.7
4/11/2016,-0.64,-0.165,0.476
12/3/2015,-0.42,0.195,0.881
3/2/2018,-0.446,0.187,0.799
7/28/2010,1.453,2.234,2.801
7/25/2012,0.805,0.927,1.266
6/5/2009,1.311,2.836,3.72
7/14/2009,0.834,2.48,3.292
3/21/2013,1.062,1.497,1.914
11/25/2013,0.9,1.605,2.278
9/12/2013,1.261,2.114,2.702
8/6/2008,4.442,4.275,4.181
12/22/2016,-0.606,-0.043,0.658
4/16/2012,1.08,1.393,1.762
11/27/2008,2.286,2.514,2.952
12/5/2017,-0.836,-0.234,0.687
11/16/2011,0.987,1.244,1.647
1/23/2009,1.407,2.294,2.98
12/10/2008,2.083,2.33,2.836
8/19/2014,0.228,0.688,1.576
6/29/2017,-0.639,-0.029,0.628
4/11/2017,-0.653,-0.102,0.552
7/11/2013,1.051,1.595,2.164
4/4/2011,2.315,3.017,3.344
4/17/2014,0.68,1.282,2.033
4/9/2010,1.559,2.519,3.234
3/25/2015,-0.319,0.012,0.385
8/5/2008,4.377,4.249,4.174
8/24/2017,-0.665,-0.052,0.804
11/13/2012,0.674,0.895,1.406
12/24/2012,0.756,1.012,1.599
4/5/2012,1.177,1.481,1.861
4/30/2015,-0.266,0.104,0.47
8/11/2009,1.047,2.777,3.475
5/16/2013,0.767,1.262,1.759
7/2/2013,1.135,1.718,2.193
10/31/2017,-0.774,-0.137,0.793
7/24/2012,0.782,0.899,1.236
2/25/2010,1.608,2.553,3.202
11/22/2011,0.962,1.249,1.669
7/30/2013,1.056,1.652,2.181
10/14/2015,-0.449,0.036,0.646
6/6/2016,-0.613,-0.256,0.412
9/13/2016,-0.605,-0.21,0.312
10/22/2008,3.186,3.333,3.582
8/21/2014,0.23,0.7,1.566
2/3/2015,-0.076,-0.036,0.632
12/14/2010,1.815,2.664,3.245
4/1/2016,-0.64,-0.133,0.495
5/27/2011,2.469,2.662,2.871
1/7/2014,1.039,1.717,2.444
10/1/2008,3.693,3.717,3.769
9/2/2014,0.193,0.606,1.454
7/6/2009,0.952,2.52,3.34
4/2/2015,-0.299,0.044,0.429
6/11/2014,0.493,1.022,1.818
9/7/2016,-0.604,-0.305,0.148
12/15/2014,0.007,0.125,0.959
3/5/2018,-0.451,0.189,0.803
3/5/2009,1.093,2.064,2.797
10/31/2013,1.016,1.67,2.269
1/1/2009,1.486,1.778,2.418
7/4/2008,4.783,4.729,4.49
8/15/2016,-0.628,-0.37,0.055
4/20/2017,-0.665,-0.093,0.563
5/20/2013,0.824,1.314,1.81
6/28/2017,-0.642,-0.072,0.562
10/12/2010,1.395,2.007,2.469
7/5/2013,1.127,1.698,2.26
7/21/2014,0.283,0.763,1.649
11/14/2008,2.416,2.724,3.391
5/18/2016,-0.602,-0.185,0.525
3/20/2018,-0.448,0.169,0.77
3/13/2015,-0.193,0.164,0.621
11/17/2016,-0.68,-0.145,0.486
5/19/2015,-0.316,0.211,0.753
11/18/2009,0.589,2.499,3.257
6/2/2016,-0.602,-0.213,0.48
12/26/2012,0.756,1.012,1.599
8/17/2010,1.249,1.875,2.401
9/10/2015,-0.463,-0.002,0.666
7/27/2010,1.459,2.235,2.795
8/28/2012,0.844,0.991,1.374
7/19/2016,-0.638,-0.29,0.169
6/26/2015,-0.235,0.438,1.09
7/10/2017,-0.688,-0.049,0.686
12/12/2014,0.011,0.143,0.965
3/2/2009,1.034,2.038,2.782
11/17/2017,-0.867,-0.216,0.731
9/2/2013,1.292,1.999,2.516
7/31/2015,-0.386,0.128,0.741
3/13/2012,1.093,1.455,1.874
9/3/2013,1.304,2.04,2.58
11/16/2010,1.451,2.279,2.894
9/23/2013,1.171,1.942,2.576
5/26/2017,-0.703,-0.126,0.514
4/12/2012,1.137,1.435,1.814
4/19/2018,-0.496,0.124,0.744
6/8/2011,2.531,2.738,2.947
9/1/2009,0.986,2.71,3.334
11/14/2016,-0.665,-0.118,0.524
4/8/2014,0.758,1.386,2.11
6/14/2017,-0.708,-0.224,0.402
1/12/2017,-0.592,-0.056,0.579
5/30/2011,2.508,2.675,2.852
4/29/2014,0.653,1.252,1.991
9/20/2011,1.163,1.419,1.77
5/10/2010,1.35,2.228,2.887
3/27/2017,-0.573,-0.001,0.642
2/7/2018,-0.741,0.033,0.935
3/18/2010,1.624,2.522,3.217
6/17/2009,1.26,2.68,3.509
7/26/2010,1.418,2.186,2.764
5/31/2012,0.776,0.97,1.285
2/17/2014,0.948,1.554,2.268
8/4/2008,4.373,4.252,4.168
5/7/2018,-0.512,0.067,0.676
8/24/2016,-0.633,-0.364,0.1
12/5/2008,1.959,2.161,2.631
7/6/2010,1.409,2.092,2.643
8/27/2009,0.971,2.719,3.343
7/17/2013,1.018,1.53,2.072
11/24/2008,2.31,2.584,3.101
8/4/2011,1.832,2.049,2.371
2/15/2011,2.135,3.13,3.502
8/4/2016,-0.651,-0.389,0.121
5/4/2012,1.085,1.313,1.704
9/15/2016,-0.628,-0.239,0.3
6/21/2013,1.124,1.694,2.173
9/1/2008,4.249,4.115,4.021
1/13/2012,0.822,1,1.594
9/21/2016,-0.639,-0.256,0.29
6/7/2017,-0.702,-0.188,0.421
10/22/2009,0.775,2.594,3.287
9/19/2014,0.187,0.636,1.576
2/27/2009,1.07,2.076,2.802
11/13/2009,0.645,2.59,3.338
7/12/2017,-0.706,-0.058,0.657
1/12/2011,1.844,2.734,3.248
9/4/2012,0.807,0.977,1.394
10/6/2017,-0.668,0.024,0.93
6/23/2016,-0.552,-0.025,0.603
5/20/2010,1.096,1.868,2.529
10/4/2011,1.136,1.35,1.629
7/14/2016,-0.628,-0.281,0.186
5/26/2014,0.554,1.088,1.851
11/14/2017,-0.85,-0.173,0.795
7/15/2015,-0.391,0.17,0.827
10/28/2010,1.456,2.328,2.875
12/18/2015,-0.456,0.237,0.956
10/27/2016,-0.711,-0.309,0.271
12/1/2015,-0.491,0.082,0.749
12/30/2009,1.712,2.406,3.289
4/13/2012,1.102,1.411,1.772
9/3/2012,0.805,0.98,1.392
4/14/2010,1.535,2.49,3.205
4/28/2015,-0.334,-0.022,0.336
10/21/2016,-0.689,-0.345,0.177
5/10/2013,0.835,1.341,1.798
2/14/2013,1.098,1.433,2.047
10/1/2009,0.839,2.634,3.302
1/20/2014,1.03,1.636,2.33
3/17/2016,-0.628,-0.089,0.562
8/9/2010,1.413,2.081,2.58
3/6/2012,0.987,1.356,1.808
5/31/2016,-0.598,-0.18,0.513
5/19/2010,1.162,1.949,2.612
1/6/2016,-0.51,0.165,0.867
2/16/2009,1.102,2.183,2.975
2/15/2013,1.095,1.434,2.019
8/26/2009,0.976,2.742,3.403
8/24/2010,1.244,1.793,2.288
5/15/2018,-0.471,0.156,0.777
12/27/2016,-0.62,-0.097,0.578
7/8/2010,1.43,2.11,2.662
1/27/2009,1.547,2.45,3.07
11/10/2011,1.024,1.271,1.63
2/15/2017,-0.546,0.076,0.744
2/10/2009,1.325,2.264,2.994
10/20/2010,1.521,2.227,2.691
7/15/2010,1.45,2.149,2.713
8/1/2008,4.378,4.262,4.18
5/20/2008,4.152,4.132,4.163
1/22/2009,1.394,2.235,2.862
3/29/2013,1.011,1.391,1.812
1/11/2017,-0.624,-0.083,0.572
1/31/2011,1.966,2.975,3.358
11/8/2013,0.988,1.751,2.406
3/16/2015,-0.199,0.15,0.611
8/13/2008,4.269,4.159,4.095
8/27/2014,0.186,0.608,1.429
6/11/2008,4.639,4.584,4.374
8/17/2012,0.911,1.111,1.524
12/27/2013,1.102,1.804,2.52
10/11/2010,1.396,2.026,2.48
6/23/2008,4.654,4.673,4.438
4/22/2011,2.892,3.163,3.271
3/29/2012,1.243,1.598,1.999
12/21/2009,1.665,2.333,3.166
7/3/2009,0.965,2.528,3.356
1/10/2013,0.934,1.202,1.797
10/13/2014,0.108,0.478,1.377
5/24/2011,2.597,2.758,2.923
3/14/2018,-0.46,0.165,0.774
11/19/2014,-0.005,0.264,1.147
10/31/2014,0.02,0.276,1.19
2/18/2014,0.886,1.48,2.214
8/29/2011,1.505,1.796,2.111
6/19/2012,0.85,1.11,1.52
11/3/2008,2.782,3.025,3.542
5/24/2012,0.86,1.104,1.466
3/25/2010,1.58,2.507,3.191
7/16/2013,1.02,1.543,2.089
8/7/2012,1.005,1.142,1.461
6/8/2015,-0.19,0.38,0.983
7/2/2010,1.403,2.073,2.622
3/30/2011,2.307,3.012,3.362
4/16/2015,-0.334,-0.053,0.262
3/26/2013,1.057,1.445,1.873
11/15/2016,-0.673,-0.126,0.512
8/12/2015,-0.534,-0.033,0.58
11/10/2014,0.01,0.302,1.205
5/4/2018,-0.506,0.075,0.685
11/26/2015,-0.498,0.078,0.722
4/1/2010,1.548,2.498,3.199
4/26/2017,-0.612,-0.001,0.662
7/11/2011,2.121,2.385,2.657
5/30/2013,0.92,1.41,1.904
6/16/2008,4.819,4.808,4.531
6/11/2012,0.838,1.076,1.45
11/24/2015,-0.442,0.161,0.848
10/5/2016,-0.656,-0.302,0.262
3/2/2017,-0.605,-0.023,0.668
2/17/2015,-0.322,-0.002,0.509
1/13/2014,1.028,1.672,2.381
12/24/2008,1.545,1.816,2.441
12/1/2017,-0.817,-0.223,0.709
9/24/2010,1.339,2.027,2.523
12/11/2017,-0.839,-0.245,0.672
8/16/2016,-0.631,-0.361,0.083
4/26/2010,1.466,2.368,3.062
1/18/2012,0.88,1.064,1.628
4/22/2014,0.686,1.301,2.058
10/4/2016,-0.667,-0.35,0.214
2/14/2018,-0.74,0.042,0.962
2/17/2017,-0.594,-0.003,0.678
7/3/2012,0.965,1.174,1.526
8/10/2016,-0.659,-0.398,0.059
10/28/2013,1.034,1.723,2.31
5/4/2011,2.759,3.048,3.191
10/17/2008,3.203,3.359,3.603
7/13/2017,-0.658,0.007,0.703
7/27/2009,0.884,2.671,3.476
1/12/2012,0.852,1.011,1.61
3/3/2014,0.864,1.445,2.151
11/4/2014,0.009,0.3,1.191
4/21/2015,-0.311,-0.021,0.315
5/12/2010,1.259,2.146,2.835
1/1/2010,1.709,2.405,3.29
9/3/2010,1.391,1.981,2.486
11/25/2016,-0.677,-0.15,0.534
4/30/2010,1.369,2.274,2.968
9/23/2010,1.327,2.009,2.496
3/16/2016,-0.613,-0.015,0.638
1/11/2010,1.636,2.353,3.292
1/27/2011,2.023,3.033,3.413
11/4/2016,-0.71,-0.307,0.281
6/4/2009,1.288,2.804,3.718
7/7/2017,-0.67,-0.027,0.695
4/6/2011,2.34,3.028,3.319
11/19/2013,0.836,1.538,2.208
7/16/2012,0.767,0.907,1.262
10/18/2012,0.806,1.112,1.665
9/1/2010,1.347,1.875,2.344
6/26/2014,0.439,0.946,1.848
10/21/2014,0.027,0.345,1.232
1/26/2012,0.92,1.175,1.797
8/25/2017,-0.661,-0.045,0.816
10/9/2014,0.105,0.491,1.394
9/18/2017,-0.684,0.003,0.88
3/28/2013,1.011,1.391,1.812
8/14/2012,0.952,1.103,1.467
4/23/2009,1.061,2.354,3.17
12/2/2014,0.013,0.222,1.072
1/5/2011,1.844,2.674,3.17
1/12/2016,-0.507,0.134,0.837
8/4/2014,0.276,0.773,1.689
2/27/2012,1.026,1.244,1.887
3/28/2011,2.295,3.022,3.375
4/11/2013,1.005,1.358,1.741
7/18/2011,2.05,2.377,2.684
6/18/2013,0.997,1.477,1.978
10/18/2016,-0.674,-0.297,0.269
10/30/2008,2.792,3.041,3.518
7/9/2014,0.293,0.809,1.788
6/28/2013,1.134,1.725,2.21
11/30/2016,-0.706,-0.154,0.536
6/21/2010,1.424,2.166,2.749
7/31/2013,1.042,1.655,2.186
9/5/2013,1.328,2.197,2.741
10/19/2015,-0.458,0.041,0.659
5/6/2014,0.652,1.238,1.942
3/29/2018,-0.469,0.101,0.688
9/8/2014,0.144,0.527,1.439
4/29/2010,1.359,2.274,2.969
9/27/2011,1.172,1.48,1.871
10/30/2009,0.659,2.566,3.25
7/9/2015,-0.423,0.109,0.758
2/24/2010,1.619,2.561,3.199
5/17/2017,-0.676,-0.123,0.556
11/9/2009,0.62,2.537,3.273
6/8/2016,-0.626,-0.292,0.339
5/27/2015,-0.274,0.237,0.758
6/27/2017,-0.661,-0.104,0.508
12/30/2008,1.483,1.776,2.415
6/14/2016,-0.624,-0.371,0.25
11/3/2017,-0.836,-0.174,0.793
4/14/2015,-0.336,-0.038,0.3
2/8/2012,1.072,1.324,1.941
7/28/2009,0.871,2.621,3.41
1/10/2018,-0.769,-0.075,0.829
2/6/2018,-0.744,0.021,0.932
10/5/2010,1.383,2.032,2.49
9/25/2012,0.727,1.049,1.561
4/25/2016,-0.603,-0.043,0.674
6/11/2009,1.381,2.901,3.77
1/31/2017,-0.534,0.093,0.74
8/19/2013,1.209,1.862,2.442
2/17/2012,1.04,1.281,1.894
8/17/2009,1.043,2.754,3.434
1/5/2015,0.037,0.125,0.917
2/3/2012,1.05,1.298,1.897
11/8/2011,1.171,1.396,1.729
7/27/2017,-0.714,-0.065,0.646
7/15/2014,0.303,0.808,1.736
2/29/2012,1.039,1.278,1.91
1/15/2013,0.907,1.17,1.75
11/29/2011,0.914,1.211,1.783
6/29/2009,1.181,2.621,3.44
3/31/2016,-0.637,-0.12,0.53
5/16/2011,2.684,2.941,3.067
9/5/2012,0.832,1.015,1.44
9/10/2013,1.295,2.163,2.742
3/23/2012,1.143,1.518,1.977
5/30/2012,0.783,1.006,1.336
1/15/2018,-0.759,-0.029,0.851
1/25/2012,0.96,1.229,1.846
1/3/2017,-0.623,-0.091,0.597
11/23/2012,0.768,1.016,1.536
5/29/2013,0.887,1.404,1.925
7/7/2009,0.962,2.536,3.334
4/13/2010,1.531,2.486,3.205
12/13/2016,-0.686,-0.106,0.605
7/10/2009,0.9,2.483,3.277
2/9/2009,1.417,2.368,3.086
6/9/2016,-0.625,-0.332,0.297
10/11/2016,-0.676,-0.33,0.225
12/29/2008,1.5,1.78,2.405
12/28/2015,-0.415,0.362,1.076
9/30/2011,1.192,1.436,1.739
3/26/2018,-0.455,0.144,0.742
3/16/2011,2.078,2.857,3.198
1/20/2017,-0.559,0.017,0.699
10/21/2011,1.354,1.612,1.963
11/1/2013,1.002,1.675,2.293
5/7/2015,-0.193,0.309,0.775
8/12/2009,1.075,2.817,3.504
9/20/2012,0.708,1.029,1.533
4/30/2012,1.153,1.425,1.806
9/1/2011,1.501,1.815,2.124
8/19/2011,1.378,1.674,1.984
11/29/2013,0.861,1.571,2.236
12/19/2017,-0.803,-0.131,0.775
3/23/2018,-0.453,0.141,0.738
6/3/2016,-0.613,-0.256,0.412
12/2/2010,1.619,2.511,3.072
4/10/2009,1.119,2.43,3.26
12/13/2010,1.775,2.613,3.2
5/6/2011,2.674,2.991,3.148
4/5/2018,-0.476,0.106,0.71
5/8/2017,-0.606,0.017,0.654
1/12/2009,1.469,1.843,2.621
12/24/2013,1.075,1.738,2.454
5/1/2013,0.84,1.22,1.624
10/29/2015,-0.448,0.014,0.632
2/23/2015,-0.283,0.122,0.675
6/24/2011,2.282,2.547,2.844
12/26/2017,-0.774,-0.12,0.747
11/25/2009,0.58,2.5,3.267
3/30/2016,-0.646,-0.128,0.521
12/8/2008,2.032,2.256,2.729
7/16/2008,4.664,4.503,4.217
7/18/2017,-0.679,-0.013,0.674
12/17/2013,0.761,1.59,2.354
4/29/2011,2.774,3.034,3.18
7/29/2009,0.875,2.599,3.385
8/19/2010,1.244,1.857,2.391
5/16/2012,0.912,1.1,1.465
1/24/2018,-0.754,-0.015,0.866
11/10/2016,-0.679,-0.189,0.453
12/10/2015,-0.463,0.177,0.862
8/22/2012,0.911,1.088,1.478
2/20/2018,-0.404,0.267,0.896
6/17/2010,1.306,2.002,2.594
8/4/2015,-0.395,0.124,0.738
1/17/2013,0.981,1.246,1.815
12/9/2013,0.895,1.674,2.352
1/10/2017,-0.626,-0.087,0.588
4/14/2011,2.321,3.045,3.362
3/19/2012,1.201,1.652,2.105
1/7/2009,1.512,1.861,2.653
9/29/2008,3.706,3.735,3.829
2/6/2017,-0.531,0.06,0.715
4/2/2013,1.037,1.446,1.862
12/31/2010,1.839,2.688,3.274
9/8/2016,-0.603,-0.273,0.196
3/3/2009,1.089,2.069,2.813
6/12/2013,0.975,1.485,1.985
8/11/2016,-0.638,-0.382,0.063
11/27/2017,-0.864,-0.241,0.708
10/16/2014,0.034,0.331,1.177
9/12/2008,4.187,4.005,3.925
2/22/2010,1.706,2.684,3.339
1/9/2009,1.47,1.833,2.617
8/6/2014,0.268,0.759,1.667
6/2/2010,1.35,2.092,2.632
9/15/2009,0.831,2.664,3.366
3/26/2012,1.199,1.596,2.047
8/5/2011,1.772,2.026,2.361
4/16/2010,1.514,2.465,3.186
2/12/2009,1.092,2.124,2.887
8/29/2012,0.863,1.015,1.405
8/26/2013,1.255,1.978,2.483
1/20/2011,1.918,2.869,3.281
2/8/2017,-0.559,0.008,0.648
3/17/2017,-0.548,0.082,0.75
1/6/2010,1.756,2.457,3.351
3/20/2014,0.888,1.505,2.214
5/3/2016,-0.601,-0.122,0.574
3/11/2014,0.896,1.488,2.188
11/23/2010,1.434,2.225,2.823
5/18/2012,0.852,1.066,1.433
9/24/2009,0.827,2.698,3.405
1/1/2016,-0.439,0.303,1.004
4/20/2011,2.325,3.007,3.258
8/8/2014,0.234,0.702,1.588
1/14/2010,1.636,2.342,3.285
10/16/2015,-0.454,0.038,0.643
9/5/2011,1.367,1.615,1.908
1/20/2016,-0.523,0.018,0.699
11/11/2013,0.994,1.762,2.409
3/31/2014,0.777,1.405,2.118
6/5/2013,0.918,1.446,1.946
7/3/2017,-0.642,-0.017,0.65
8/9/2013,1.101,1.668,2.204
7/1/2009,1.173,2.679,3.492
1/27/2012,0.923,1.167,1.769
9/21/2012,0.715,1.053,1.565
12/27/2011,0.81,1.052,1.669
11/24/2011,0.878,1.139,1.602
1/25/2010,1.575,2.253,3.189
12/28/2011,0.838,1.059,1.671
5/24/2010,1.142,1.975,2.61
8/26/2010,1.253,1.761,2.24
1/19/2010,1.631,2.327,3.263
9/9/2011,1.086,1.395,1.796
9/22/2011,1.116,1.35,1.686
4/19/2013,0.84,1.233,1.617
2/10/2016,-0.582,-0.15,0.456
4/23/2014,0.68,1.299,2.037
8/21/2013,1.187,1.834,2.401
7/26/2017,-0.715,-0.067,0.649
6/6/2012,0.71,0.877,1.145
2/22/2011,2.145,2.975,3.324
3/29/2017,-0.594,-0.033,0.619
3/22/2010,1.595,2.488,3.171
10/17/2017,-0.706,-0.069,0.852
7/17/2012,0.804,0.943,1.296
3/18/2013,1.075,1.307,1.891
12/8/2010,1.72,2.576,3.204
12/2/2013,0.936,1.648,2.308
3/17/2011,2.163,2.946,3.276
11/27/2014,-0.019,0.172,1.015
9/13/2012,0.79,1.02,1.497
6/13/2012,0.917,1.19,1.584
7/21/2015,-0.371,0.187,0.821
11/30/2017,-0.83,-0.212,0.737
10/10/2013,1.072,1.856,2.488
5/28/2015,-0.271,0.212,0.722
1/21/2009,1.39,2.189,2.801
3/28/2012,1.216,1.602,2.022
10/3/2011,1.158,1.393,1.696
2/10/2014,0.941,1.542,2.238
1/27/2015,-0.001,0.061,0.713
5/17/2012,0.898,1.095,1.46
9/29/2011,1.208,1.493,1.84
12/28/2010,1.787,2.654,3.253
3/24/2016,-0.626,-0.113,0.515
4/14/2017,-0.671,-0.137,0.516
11/7/2012,0.713,0.908,1.403
9/2/2016,-0.623,-0.337,0.14
9/6/2011,1.337,1.58,1.861
3/15/2012,1.127,1.556,1.99
10/15/2008,3.381,3.508,3.723
6/27/2013,1.081,1.69,2.179
11/25/2015,-0.482,0.111,0.772
10/26/2016,-0.705,-0.325,0.203
10/25/2017,-0.712,-0.028,0.905
3/24/2014,0.835,1.462,2.183
7/8/2009,0.94,2.512,3.293
5/8/2018,-0.491,0.091,0.701
9/30/2014,0.153,0.563,1.488
8/3/2012,1,1.085,1.383
6/14/2011,2.419,2.656,2.929
5/11/2015,-0.213,0.305,0.787
9/26/2008,3.881,3.886,3.934
2/5/2013,1.041,1.377,1.988
5/5/2009,1.174,2.538,3.342
9/22/2014,0.179,0.629,1.552
4/1/2011,2.338,3.038,3.381
5/8/2015,-0.213,0.277,0.736
6/3/2014,0.545,1.093,1.859
12/25/2014,0.022,0.162,0.971
6/23/2017,-0.692,-0.16,0.448
11/24/2009,0.565,2.485,3.259
4/18/2018,-0.527,0.062,0.671
7/6/2017,-0.661,0.006,0.719
5/2/2011,2.808,3.079,3.204
8/18/2017,-0.652,-0.006,0.627
12/18/2009,1.65,2.307,3.129
4/27/2015,-0.332,-0.013,0.342
10/26/2017,-0.742,-0.078,0.854
6/1/2011,2.55,2.712,2.909
11/15/2012,0.689,0.916,1.443
5/28/2008,4.442,4.391,4.362
8/23/2013,1.268,1.997,2.514
1/4/2010,1.759,2.448,3.33
5/5/2010,1.38,2.227,2.846
11/13/2013,0.889,1.641,2.315
9/15/2008,3.985,3.818,3.809
2/28/2012,1.06,1.283,1.907
12/1/2016,-0.688,-0.101,0.589
1/21/2013,0.987,1.26,1.835
11/23/2016,-0.684,-0.169,0.498
9/24/2015,-0.491,0.026,0.69
2/20/2013,1.144,1.496,2.083
4/7/2015,-0.323,0.022,0.412
12/24/2009,1.659,2.334,3.229
2/14/2012,1.034,1.265,1.858
4/5/2013,0.956,1.295,1.663
7/30/2010,1.446,2.208,2.753
4/9/2015,-0.316,0.003,0.387
4/12/2016,-0.628,-0.126,0.543
6/20/2011,2.323,2.59,2.861
11/3/2011,1.157,1.415,1.79
12/17/2009,1.646,2.319,3.156
1/12/2010,1.628,2.336,3.259
1/10/2014,1.03,1.694,2.404
6/24/2015,-0.271,0.412,1.034
8/15/2011,1.489,1.843,2.193
10/30/2015,-0.451,0.023,0.64
5/23/2008,4.44,4.316,4.234
9/28/2010,1.296,1.953,2.419
10/7/2008,3.422,3.446,3.433
6/13/2016,-0.616,-0.362,0.262
2/11/2014,0.945,1.555,2.259
11/23/2015,-0.45,0.155,0.859
12/19/2008,1.621,1.898,2.518
1/8/2009,1.503,1.857,2.635
7/31/2012,0.969,1.068,1.39
7/17/2014,0.292,0.774,1.673
2/26/2018,-0.44,0.198,0.829
10/6/2015,-0.462,0.046,0.686
8/1/2011,1.989,2.199,2.484
2/13/2009,1.13,2.196,2.988
5/2/2008,4.032,4.056,4.173
3/6/2014,0.905,1.502,2.219
8/25/2010,1.233,1.767,2.247
10/11/2012,0.665,0.932,1.482
3/7/2011,2.303,3.18,3.466
4/16/2018,-0.516,0.073,0.68
8/7/2015,-0.476,0.088,0.711
5/4/2017,-0.631,-0.031,0.616
8/18/2010,1.236,1.846,2.376
5/27/2010,1.164,1.984,2.635
5/11/2012,0.973,1.143,1.51
6/19/2017,-0.696,-0.15,0.466
4/10/2018,-0.481,0.095,0.69
6/9/2010,1.2,1.921,2.476
11/6/2017,-0.834,-0.192,0.773
8/13/2009,1.061,2.836,3.541
11/18/2013,0.845,1.542,2.206
11/4/2009,0.642,2.55,3.271
1/7/2011,1.823,2.691,3.215
4/17/2012,1.12,1.446,1.819
6/16/2014,0.503,1.008,1.789
6/3/2015,-0.197,0.374,0.988
1/25/2017,-0.542,0.065,0.741
9/9/2009,0.863,2.7,3.41
6/30/2014,0.446,0.947,1.848
12/30/2013,1.087,1.782,2.504
4/17/2015,-0.334,-0.068,0.239
5/15/2012,0.935,1.108,1.472
6/16/2015,-0.17,0.45,1.008
12/23/2016,-0.62,-0.069,0.615
12/24/2014,0.022,0.162,0.971
7/7/2016,-0.647,-0.317,0.114
4/20/2010,1.52,2.451,3.165
2/21/2018,-0.408,0.248,0.875
2/1/2017,-0.524,0.112,0.755
12/20/2012,0.763,1.021,1.607
3/6/2015,-0.129,0.311,0.843
4/7/2017,-0.624,-0.088,0.548
9/30/2010,1.411,2.06,2.517
3/20/2012,1.223,1.657,2.111
5/31/2010,1.265,2.049,2.636
11/4/2010,1.382,2.173,2.737
12/14/2016,-0.698,-0.131,0.571
6/5/2014,0.545,1.103,1.872
6/15/2011,2.379,2.613,2.896
12/22/2009,1.683,2.358,3.227
6/3/2011,2.548,2.727,2.906
10/3/2012,0.622,0.937,1.459
5/1/2008,4.032,4.056,4.173
5/15/2009,1.196,2.673,3.517
1/17/2011,1.849,2.773,3.225
3/8/2010,1.608,2.527,3.212
5/30/2016,-0.584,-0.133,0.567
2/22/2017,-0.643,-0.077,0.632
3/22/2012,1.157,1.545,2.003
6/21/2017,-0.696,-0.144,0.469
11/20/2015,-0.451,0.143,0.831
6/24/2016,-0.631,-0.183,0.603
2/22/2018,-0.408,0.236,0.861
12/16/2013,0.819,1.603,2.322
7/25/2016,-0.651,-0.301,0.193
10/27/2015,-0.474,0.033,0.64
7/8/2013,1.058,1.646,2.242
3/16/2009,1.079,2.106,2.904
9/16/2015,-0.43,0.147,0.822
12/11/2009,1.799,2.467,3.276
7/9/2010,1.474,2.134,2.675
12/6/2016,-0.658,-0.047,0.631
6/10/2010,1.248,1.976,2.53
3/24/2015,-0.309,0.019,0.393
3/12/2014,0.865,1.423,2.124
11/23/2017,-0.885,-0.258,0.687
5/7/2009,1.286,2.733,3.54
7/24/2013,1.12,1.675,2.185
8/24/2012,0.886,1.029,1.405
8/20/2009,0.971,2.691,3.377
3/27/2009,1.14,2.355,3.157
11/28/2014,-0.014,0.175,1.018
12/13/2017,-0.831,-0.212,0.701
10/26/2011,1.315,1.556,1.934
11/18/2015,-0.443,0.145,0.837
3/24/2011,2.265,2.998,3.345
1/29/2010,1.614,2.284,3.181
12/26/2014,0.022,0.162,0.971
7/20/2012,0.76,0.87,1.207
10/15/2015,-0.455,0.032,0.638
12/22/2017,-0.773,-0.12,0.747
12/10/2012,0.693,0.905,1.437
6/23/2015,-0.286,0.426,1.068
6/2/2015,-0.23,0.27,0.831
5/29/2012,0.795,1.058,1.414
10/12/2009,0.836,2.574,3.195
1/2/2013,0.778,1.053,1.646
7/1/2010,1.364,2.065,2.623
10/1/2014,0.14,0.537,1.443
5/2/2014,0.635,1.223,1.945
11/12/2013,0.909,1.701,2.381
9/12/2011,1.004,1.32,1.712
2/23/2009,1.019,2.023,2.757
1/31/2013,1.025,1.378,1.984
3/19/2010,1.617,2.513,3.207
4/18/2016,-0.619,-0.113,0.526
5/9/2008,3.985,3.949,4.015
4/17/2009,1.03,2.33,3.176
4/22/2016,-0.601,-0.056,0.647
3/27/2012,1.195,1.595,2.036
7/19/2012,0.785,0.922,1.247
6/25/2010,1.387,2.072,2.644
3/19/2015,-0.298,0.047,0.482
9/14/2012,0.786,1.117,1.628
8/25/2016,-0.627,-0.352,0.109
6/15/2010,1.295,1.977,2.541
9/30/2009,0.839,2.651,3.326
10/27/2010,1.473,2.359,2.877
12/16/2010,1.871,2.741,3.3
7/19/2013,1.055,1.565,2.096
6/12/2014,0.483,1.006,1.8
6/6/2011,2.551,2.716,2.909
11/6/2014,-0.003,0.303,1.199
6/2/2014,0.536,1.068,1.827
12/16/2015,-0.462,0.237,0.992
9/27/2016,-0.679,-0.377,0.143
11/7/2017,-0.838,-0.184,0.771
3/17/2014,0.844,1.409,2.116
2/18/2015,-0.3,0.031,0.567
5/23/2013,0.836,1.314,1.84
9/7/2012,0.818,1.019,1.468
12/17/2014,0.001,0.103,0.922
9/20/2016,-0.645,-0.263,0.276
1/6/2017,-0.615,-0.075,0.628
2/12/2010,1.688,2.704,3.353
12/23/2011,0.848,1.094,1.72
8/9/2017,-0.705,-0.063,0.595
8/13/2014,0.238,0.702,1.611
6/4/2008,4.418,4.378,4.339
7/25/2017,-0.709,-0.053,0.666
8/7/2013,1.063,1.644,2.189
5/18/2017,-0.687,-0.132,0.513
9/29/2015,-0.485,0.035,0.684
12/1/2008,2.109,2.325,2.81
9/18/2009,0.876,2.713,3.404
12/13/2012,0.73,0.929,1.467
1/20/2015,0.002,0.032,0.745
3/20/2013,1.073,1.543,1.975
4/22/2013,0.81,1.192,1.579
4/28/2016,-0.597,-0.04,0.64
8/1/2013,1.048,1.662,2.178
12/1/2014,-0.008,0.194,1.044
3/11/2016,-0.607,-0.051,0.607
12/3/2014,0.003,0.218,1.076
4/26/2011,2.824,3.101,3.212
1/1/2018,-0.766,-0.1,0.777
8/12/2016,-0.64,-0.391,0.045
4/13/2017,-0.671,-0.137,0.516
4/10/2012,1.068,1.35,1.745
5/30/2014,0.533,1.057,1.804
2/18/2009,1.046,2.054,2.799
7/5/2017,-0.677,-0.046,0.64
8/28/2009,0.995,2.734,3.355
8/17/2017,-0.648,0.02,0.656
9/22/2015,-0.491,0.027,0.685
5/12/2008,4.025,3.986,4.039
9/26/2011,1.09,1.353,1.719
4/3/2009,1.178,2.435,3.175
6/26/2013,1.123,1.73,2.229
7/5/2011,2.403,2.705,2.929
1/3/2018,-0.773,-0.102,0.773
4/5/2011,2.313,2.987,3.299
11/4/2011,1.156,1.401,1.811
2/25/2014,0.882,1.487,2.209
10/19/2011,1.306,1.565,1.921
5/24/2016,-0.593,-0.173,0.543
3/24/2017,-0.559,0.027,0.673
7/30/2009,0.968,2.668,3.427
11/28/2011,0.879,1.191,1.713
6/22/2017,-0.698,-0.161,0.444
3/26/2015,-0.311,0.03,0.405
6/20/2017,-0.7,-0.164,0.453
4/28/2014,0.674,1.271,2.002
3/26/2009,1.202,2.412,3.21
12/9/2015,-0.436,0.23,0.921
8/19/2008,4.242,4.112,4.048
7/14/2014,0.314,0.816,1.746
9/11/2015,-0.457,0.011,0.656
5/19/2016,-0.601,-0.183,0.532
4/6/2018,-0.482,0.092,0.693
9/16/2010,1.468,2.155,2.637
5/25/2009,1.331,2.888,3.69
12/14/2012,0.739,0.952,1.495
1/28/2014,1.007,1.609,2.308
1/5/2016,-0.504,0.157,0.873
1/10/2012,0.891,1.1,1.695
12/8/2011,0.835,1.053,1.653
10/23/2013,1.03,1.738,2.353
3/18/2014,0.839,1.399,2.112
7/14/2010,1.466,2.145,2.697
4/9/2013,0.97,1.31,1.672
12/16/2011,0.816,1.034,1.616
12/28/2009,1.688,2.38,3.282
8/8/2008,4.418,4.205,4.13
1/18/2017,-0.566,-0.019,0.634
8/6/2010,1.432,2.097,2.581
2/9/2018,-0.741,0.031,0.94
5/23/2017,-0.697,-0.11,0.537
9/5/2017,-0.657,-0.055,0.825
11/24/2010,1.465,2.279,2.903
9/9/2010,1.414,2.022,2.497
10/30/2014,-0.042,0.258,1.164
9/17/2013,1.216,2.037,2.651
4/7/2011,2.336,3.041,3.338
8/28/2015,-0.519,0.06,0.687
3/10/2009,1.113,2.054,2.769
6/23/2014,0.494,1.038,1.816
10/8/2012,0.658,0.948,1.483
1/21/2010,1.605,2.289,3.218
10/13/2016,-0.673,-0.311,0.253
11/5/2009,0.65,2.583,3.297
3/18/2015,-0.304,0.023,0.457
4/11/2012,1.129,1.408,1.8
11/15/2011,0.953,1.213,1.618
8/3/2010,1.419,2.168,2.708
6/10/2011,2.43,2.615,2.855
4/21/2016,-0.608,-0.075,0.608
2/23/2012,1.037,1.291,1.926
6/12/2012,0.896,1.151,1.51
3/10/2011,2.248,3.131,3.424
12/25/2009,1.657,2.332,3.228
12/17/2012,0.73,0.966,1.508
3/21/2014,0.857,1.496,2.21
1/17/2017,-0.573,-0.039,0.604
10/8/2014,0.121,0.515,1.413
5/28/2009,1.29,2.877,3.738
7/22/2013,1.075,1.582,2.103
12/20/2011,0.854,1.066,1.687
1/29/2014,0.984,1.568,2.271
11/8/2016,-0.731,-0.313,0.267
4/8/2009,1.138,2.427,3.241
9/22/2009,0.861,2.741,3.46
9/21/2010,1.403,2.128,2.634
8/10/2011,1.408,1.697,2.067
7/22/2016,-0.625,-0.293,0.175
12/3/2010,1.623,2.515,3.116
1/20/2010,1.595,2.284,3.214
3/4/2014,0.883,1.467,2.184
1/18/2018,-0.753,-0.02,0.869
6/15/2009,1.255,2.685,3.509
4/13/2009,1.12,2.43,3.26
2/6/2013,1.034,1.369,1.975
12/20/2010,1.854,2.674,3.19
5/20/2015,-0.292,0.245,0.814
3/30/2015,-0.3,0.064,0.444
9/14/2015,-0.465,0.015,0.667
5/12/2016,-0.601,-0.198,0.498
6/23/2011,2.28,2.547,2.844
2/8/2018,-0.74,0.052,0.968
7/3/2014,0.47,0.884,1.868
12/7/2012,0.685,0.91,1.444
7/20/2009,0.836,2.539,3.378
2/16/2018,-0.738,0.027,0.926
4/20/2016,-0.613,-0.11,0.522
2/27/2018,-0.437,0.209,0.833
6/25/2008,4.595,4.649,4.478
11/26/2009,0.542,2.427,3.199
8/7/2014,0.245,0.712,1.596
1/19/2016,-0.497,0.088,0.798
6/3/2010,1.37,2.122,2.673
12/27/2017,-0.784,-0.132,0.727
7/2/2008,4.688,4.724,4.562
10/21/2015,-0.439,0.1,0.726
1/5/2017,-0.618,-0.083,0.615
9/2/2015,-0.503,0.097,0.747
5/10/2011,2.603,2.898,3.056
7/4/2016,-0.631,-0.336,0.172
12/7/2011,0.885,1.109,1.725
9/28/2017,-0.654,0.031,0.949
4/23/2015,-0.313,0.006,0.361
9/3/2009,0.85,2.645,3.317
5/20/2014,0.573,1.125,1.844
10/31/2012,0.769,1.014,1.53
10/22/2010,1.551,2.32,2.772
11/17/2011,1.04,1.298,1.69
6/10/2009,1.401,2.897,3.747
3/31/2011,2.3,2.995,3.348
9/24/2008,3.906,3.887,3.891
7/31/2014,0.283,0.779,1.692
4/15/2016,-0.608,-0.109,0.536
10/29/2014,0.025,0.259,1.185
8/15/2014,0.231,0.682,1.552
11/3/2009,0.638,2.511,3.214
6/17/2016,-0.612,-0.107,0.523
9/16/2008,3.836,3.696,3.724
12/5/2011,0.925,1.179,1.812
7/27/2012,0.882,1.058,1.421
10/6/2010,1.361,1.992,2.443
1/26/2010,1.567,2.244,3.173
3/12/2010,1.679,2.589,3.281
3/12/2015,-0.19,0.192,0.672
4/22/2015,-0.315,-0.011,0.34
10/23/2009,0.692,2.64,3.349
9/30/2015,-0.482,0.057,0.726
8/8/2012,0.961,1.086,1.417
1/28/2010,1.588,2.259,3.182
6/3/2009,1.221,2.782,3.711
7/8/2011,2.275,2.557,2.806
1/1/2014,1.087,1.782,2.504
2/21/2017,-0.613,-0.042,0.659
2/17/2011,2.085,3.005,3.382
12/5/2014,0.004,0.231,1.095
2/29/2016,-0.605,-0.135,0.473
5/9/2018,-0.47,0.119,0.727
10/2/2008,3.661,3.684,3.753
1/5/2012,0.939,1.114,1.687
12/8/2017,-0.828,-0.229,0.686
3/12/2018,-0.431,0.189,0.788
6/22/2009,1.211,2.678,3.547
10/1/2010,1.44,2.11,2.565
4/13/2015,-0.321,-0.013,0.339
11/7/2008,2.657,2.932,3.602
11/24/2017,-0.879,-0.237,0.711
11/21/2014,-0.004,0.226,1.094
8/13/2013,1.151,1.746,2.296
4/2/2018,-0.469,0.101,0.688
8/27/2013,1.231,1.938,2.448
11/22/2017,-0.876,-0.225,0.721
2/7/2011,2.055,3.071,3.46
8/2/2017,-0.685,0.001,0.686
3/13/2017,-0.53,0.1,0.775
4/19/2017,-0.671,-0.11,0.544
9/8/2008,4.272,4.07,3.889
2/8/2010,1.53,2.535,3.218
2/25/2013,1.067,1.422,2.022
7/10/2015,-0.384,0.191,0.87
1/20/2012,0.96,1.189,1.77
11/2/2017,-0.824,-0.164,0.798
1/18/2013,0.973,1.243,1.805
3/30/2009,1.095,2.295,3.105
9/17/2009,0.881,2.718,3.412
7/19/2011,2.105,2.435,2.73
9/14/2017,-0.678,-0.039,0.835
2/13/2018,-0.744,0.021,0.944
5/18/2011,2.617,2.821,2.954
5/4/2010,1.455,2.316,2.952
1/23/2015,-0.008,0.021,0.678
6/13/2008,4.723,4.723,4.48
1/15/2015,0.028,0.072,0.785
9/25/2017,-0.692,-0.019,0.853
7/4/2012,0.939,1.126,1.492
5/14/2018,-0.469,0.149,0.763
1/19/2011,1.88,2.817,3.236
10/21/2013,1.055,1.803,2.431
3/26/2010,1.58,2.525,3.216
4/8/2011,2.361,3.122,3.427
8/30/2016,-0.636,-0.353,0.101
3/19/2009,1.111,2.125,2.837
11/20/2017,-0.867,-0.224,0.725
8/23/2016,-0.634,-0.364,0.09
5/21/2018,-0.504,0.082,0.69
8/20/2012,0.935,1.12,1.53
12/15/2008,1.929,2.204,2.819
11/14/2013,0.887,1.611,2.276
3/22/2016,-0.639,-0.121,0.539
1/13/2009,1.383,2.092,2.597
4/24/2009,1.107,2.413,3.243
2/26/2015,-0.218,0.125,0.633
7/7/2008,4.764,4.678,4.415
5/11/2016,-0.603,-0.201,0.492
12/25/2012,0.756,1.012,1.599
12/11/2008,2.011,2.292,2.849
8/2/2011,1.975,2.174,2.449
7/31/2009,0.961,2.621,3.336
4/11/2018,-0.478,0.09,0.681
4/21/2017,-0.64,-0.107,0.564
10/13/2009,0.822,2.552,3.186
6/9/2011,2.507,2.691,2.909
5/12/2017,-0.656,-0.083,0.572
7/14/2011,2.083,2.414,2.715
5/31/2017,-0.71,-0.16,0.473
9/6/2012,0.852,1.072,1.495
5/27/2009,1.279,2.852,3.688
1/24/2013,0.97,1.225,1.801
2/26/2014,0.854,1.455,2.191
3/27/2018,-0.455,0.133,0.728
3/9/2016,-0.621,-0.101,0.538
2/20/2012,1.078,1.33,1.953
2/6/2014,0.983,1.587,2.274
12/15/2009,1.751,2.434,3.26
4/18/2011,2.318,2.996,3.28
10/16/2017,-0.709,-0.073,0.848
8/28/2013,1.291,1.995,2.494
7/6/2016,-0.641,-0.349,0.103
1/12/2018,-0.761,-0.023,0.858
8/5/2010,1.424,2.113,2.633
8/7/2017,-0.683,-0.019,0.662
6/23/2009,1.229,2.69,3.541
2/11/2016,-0.626,-0.192,0.41
12/17/2010,1.86,2.727,3.263
3/2/2015,-0.119,0.245,0.732
4/23/2018,-0.49,0.158,0.788
11/28/2008,2.201,2.438,2.906
12/29/2015,-0.423,0.343,1.045
11/8/2010,1.387,2.166,2.743
7/15/2016,-0.624,-0.257,0.22
3/2/2012,1.01,1.389,1.846
8/29/2017,-0.68,-0.082,0.783
10/9/2013,1.097,1.862,2.468
3/20/2017,-0.541,0.087,0.764
1/27/2017,-0.541,0.079,0.749
3/19/2018,-0.453,0.157,0.755
8/3/2017,-0.678,-0.001,0.672
5/26/2011,2.501,2.675,2.87
8/29/2014,0.181,0.584,1.397
6/11/2015,-0.136,0.475,1.056
10/29/2009,0.676,2.585,3.275
3/13/2013,1.13,1.374,1.947
4/29/2015,-0.277,0.061,0.417
4/7/2009,1.163,2.449,3.243
1/14/2014,1.082,1.716,2.403
10/23/2012,0.757,1.077,1.624
10/24/2014,0.029,0.373,1.272
3/7/2014,0.917,1.517,2.22
7/25/2008,4.646,4.595,4.404
1/12/2015,0.027,0.095,0.82
3/30/2012,1.278,1.596,1.977
10/3/2016,-0.67,-0.356,0.19
8/18/2011,1.343,1.629,1.933
12/23/2008,1.539,1.817,2.442
4/19/2012,1.151,1.453,1.802
7/2/2014,0.464,0.965,1.885
6/15/2016,-0.549,-0.09,0.495
11/6/2008,2.709,2.984,3.67
8/9/2012,0.981,1.123,1.478
9/7/2009,0.804,2.612,3.28
11/11/2011,1.016,1.307,1.697
1/4/2012,0.947,1.126,1.722
9/30/2008,3.745,3.761,3.822
10/13/2011,1.344,1.608,1.955
7/8/2008,4.771,4.656,4.41
7/28/2016,-0.655,-0.366,0.112
12/8/2009,0.389,2.402,3.182
11/21/2008,2.252,2.529,3.067
12/3/2013,0.933,1.642,2.313
7/24/2009,0.845,2.623,3.438
12/28/2012,0.742,0.963,1.525
3/6/2018,-0.436,0.218,0.837
8/14/2014,0.238,0.702,1.602
4/6/2016,-0.653,-0.165,0.43
10/18/2017,-0.699,-0.064,0.86
10/12/2015,-0.451,0.043,0.674
8/15/2017,-0.625,0.051,0.682
10/20/2011,1.321,1.595,1.935
10/14/2011,1.377,1.67,2.025
12/15/2017,-0.818,-0.169,0.737
7/3/2008,4.76,4.756,4.539
10/7/2016,-0.65,-0.278,0.283
4/21/2014,0.68,1.282,2.033
12/17/2015,-0.441,0.258,0.991
6/17/2008,4.759,4.754,4.498
11/17/2015,-0.431,0.147,0.847
8/20/2015,-0.509,-0.018,0.584
3/9/2018,-0.432,0.211,0.81
9/26/2012,0.687,0.973,1.479
12/23/2015,-0.421,0.335,1.066
12/20/2017,-0.796,-0.113,0.777
7/2/2015,-0.396,0.257,0.959
10/26/2012,0.749,1.016,1.562
7/18/2012,0.765,0.898,1.239
8/4/2017,-0.681,0.003,0.677
11/27/2009,0.527,2.407,3.199
7/27/2011,2.045,2.337,2.632
6/19/2008,4.71,4.74,4.473
12/19/2011,0.787,1.01,1.624
9/11/2012,0.819,1.01,1.459
2/5/2015,-0.093,-0.043,0.651
7/1/2016,-0.624,-0.304,0.22
8/20/2014,0.221,0.677,1.553
7/1/2014,0.448,0.938,1.844
4/28/2010,1.346,2.248,2.938
5/30/2008,4.437,4.403,4.387
10/17/2016,-0.67,-0.292,0.284
10/14/2008,3.398,3.526,3.681
10/8/2010,1.397,2.033,2.486
8/10/2015,-0.499,0.066,0.707
12/2/2015,-0.511,0.052,0.746
9/21/2015,-0.475,0.065,0.759
9/11/2017,-0.714,-0.121,0.748
10/25/2016,-0.706,-0.352,0.157
1/27/2014,1.014,1.609,2.291
4/12/2018,-0.518,0.062,0.659
9/10/2009,0.829,2.659,3.384
7/26/2011,2.097,2.415,2.71
10/7/2013,1.113,1.876,2.503
5/22/2015,-0.264,0.266,0.797
2/11/2011,2.054,3.062,3.453
4/16/2009,1.011,2.301,3.133
8/17/2011,1.52,1.814,2.149
7/12/2011,2.086,2.388,2.688
5/13/2011,2.656,2.918,3.047
3/8/2011,2.27,3.149,3.433
10/2/2013,1.173,1.912,2.505
9/23/2014,0.181,0.628,1.543
10/11/2017,-0.64,0.049,0.944
12/9/2016,-0.694,-0.104,0.611
6/29/2011,2.298,2.591,2.892
5/1/2018,-0.539,0.086,0.714
5/9/2013,0.786,1.304,1.76
9/29/2016,-0.666,-0.352,0.176
2/19/2010,1.715,2.693,3.339
8/15/2008,4.3,4.18,4.095
7/12/2013,1.021,1.564,2.103
11/22/2012,0.753,1.002,1.533
1/4/2011,1.841,2.684,3.217
8/28/2014,0.173,0.581,1.396
12/4/2009,0.435,2.514,3.286
5/11/2018,-0.472,0.123,0.73
9/29/2009,0.827,2.666,3.365
2/18/2016,-0.592,-0.103,0.531
11/5/2008,2.791,3.049,3.681
9/8/2011,1.259,1.52,1.894
1/21/2015,0.005,0.057,0.795
6/6/2008,4.5,4.423,4.337
7/29/2016,-0.661,-0.374,0.104
5/6/2008,3.984,3.98,4.071
10/17/2012,0.748,1.058,1.648
9/22/2008,4.08,4.029,3.985
7/18/2008,4.699,4.622,4.361
2/23/2010,1.633,2.573,3.229
9/3/2008,4.23,4.072,3.965
2/23/2016,-0.592,-0.099,0.523
3/16/2010,1.621,2.525,3.225
12/11/2012,0.703,0.918,1.451
3/5/2014,0.888,1.471,2.193
3/4/2010,1.577,2.482,3.137
11/13/2015,-0.415,0.169,0.88
9/27/2013,1.128,1.843,2.449
3/27/2015,-0.308,0.027,0.401
5/9/2012,1.036,1.227,1.596
7/4/2011,2.397,2.719,2.925
5/28/2013,0.84,1.335,1.871
11/20/2014,0.005,0.244,1.118
6/18/2012,0.829,1.061,1.472
1/28/2016,-0.526,0.01,0.674
2/19/2016,-0.598,-0.11,0.515
2/6/2012,1.055,1.284,1.88
1/11/2012,0.865,1.07,1.676
2/27/2015,-0.14,0.205,0.713
12/30/2016,-0.62,-0.114,0.556
2/11/2009,1.102,2.126,2.901
12/21/2010,1.81,2.66,3.214
12/14/2015,-0.497,0.135,0.862
9/6/2017,-0.653,-0.051,0.804
8/14/2008,4.288,4.17,4.106
3/30/2010,1.55,2.496,3.189
1/25/2018,-0.748,0.016,0.889
5/28/2014,0.536,1.053,1.795
9/17/2008,3.884,3.763,3.768
12/11/2015,-0.478,0.142,0.841
10/7/2009,0.814,2.532,3.172
1/9/2012,0.909,1.092,1.672
4/30/2018,-0.539,0.086,0.714
2/19/2015,-0.313,0.068,0.6
10/28/2014,0.024,0.275,1.201
9/28/2009,0.826,2.678,3.374
9/21/2009,0.855,2.721,3.434
12/9/2008,2.149,2.399,2.884
1/30/2017,-0.533,0.1,0.767
4/25/2014,0.658,1.26,1.987
1/22/2014,1.06,1.685,2.372
2/17/2009,1.015,2.078,2.865
2/4/2010,1.576,2.241,3.146
7/22/2010,1.379,2.108,2.688
3/1/2012,1.05,1.461,1.931
12/4/2008,1.893,2.083,2.564
7/17/2009,0.825,2.502,3.338
5/26/2015,-0.266,0.235,0.749
10/17/2014,0.045,0.373,1.235
7/11/2014,0.319,0.814,1.753
2/28/2014,0.906,1.509,2.225
9/8/2009,0.833,2.673,3.351
1/8/2018,-0.774,-0.128,0.748
8/21/2009,1.051,2.778,3.429
10/14/2009,0.823,2.583,3.239
8/18/2009,1.007,2.752,3.449
2/20/2009,1.051,2.043,2.776
6/4/2015,-0.197,0.372,0.97
1/2/2015,0.016,0.109,0.9
10/13/2008,3.35,3.494,3.69
8/11/2017,-0.685,-0.051,0.597
11/18/2011,1.069,1.345,1.747
8/23/2010,1.27,1.866,2.388
7/13/2012,0.782,0.931,1.285
12/22/2015,-0.438,0.31,1.026
8/2/2016,-0.65,-0.373,0.128
2/3/2009,1.379,2.336,3.021
2/4/2016,-0.548,-0.06,0.549
4/28/2017,-0.649,-0.073,0.587
2/18/2011,2.126,3.051,3.415
1/3/2011,1.821,2.693,3.273
7/20/2017,-0.698,-0.058,0.643
8/24/2011,1.505,1.796,2.094
1/8/2014,1.033,1.717,2.454
3/1/2018,-0.455,0.176,0.787
9/6/2016,-0.631,-0.334,0.136
10/6/2011,1.274,1.501,1.808
7/11/2008,4.788,4.617,4.296
11/6/2015,-0.421,0.148,0.848
6/1/2017,-0.702,-0.163,0.448
2/5/2014,0.948,1.531,2.221
4/14/2009,1.069,2.367,3.192
10/8/2015,-0.451,0.044,0.666
1/24/2017,-0.561,0.02,0.681
4/13/2016,-0.615,-0.124,0.532
6/26/2008,4.569,4.614,4.446
9/4/2014,0.161,0.563,1.475
5/29/2009,1.224,2.841,3.753
3/7/2012,0.989,1.35,1.791
10/26/2015,-0.46,0.07,0.675
9/12/2012,0.837,1.067,1.53
6/7/2010,1.235,1.955,2.496
5/6/2013,0.822,1.282,1.715
7/8/2014,0.28,0.797,1.782
8/5/2013,1.071,1.67,2.19
3/4/2013,1.135,1.385,1.906
5/3/2011,2.753,3.048,3.197
3/31/2010,1.537,2.481,3.173
8/12/2008,4.428,4.188,4.092
11/11/2008,2.556,2.844,3.524
9/8/2010,1.422,1.986,2.465
3/18/2011,2.233,2.981,3.283
8/16/2017,-0.637,0.04,0.678
1/30/2015,-0.052,-0.022,0.627
11/23/2011,0.938,1.211,1.643
9/16/2014,0.193,0.634,1.573
2/15/2012,1.014,1.241,1.837
2/9/2011,2.081,3.126,3.495
1/14/2015,0.05,0.105,0.79
11/19/2015,-0.437,0.175,0.866
5/27/2013,0.821,1.299,1.823
2/13/2012,1.006,1.255,1.889
3/11/2009,1.167,2.158,2.878
8/25/2015,-0.511,0.003,0.645
9/29/2010,1.368,2.012,2.465
3/13/2018,-0.431,0.194,0.795
9/16/2009,0.856,2.693,3.396
4/14/2014,0.647,1.252,2.022
5/25/2010,1.061,1.885,2.536
4/15/2014,0.63,1.21,1.969
5/1/2014,0.639,1.231,1.964
6/19/2015,-0.215,0.396,0.968
6/28/2011,2.229,2.514,2.831
12/12/2013,0.842,1.641,2.35
8/8/2017,-0.691,-0.028,0.649
11/16/2012,0.701,0.917,1.44
1/11/2011,1.808,2.664,3.186
1/6/2012,0.935,1.118,1.684
2/10/2015,-0.139,0.208,0.668
1/9/2017,-0.622,-0.089,0.602
2/16/2012,0.986,1.224,1.849
9/24/2014,0.172,0.611,1.533
1/3/2013,0.794,1.084,1.682
7/13/2010,1.461,2.131,2.685
7/10/2014,0.315,0.821,1.773
5/13/2013,0.831,1.328,1.788
6/15/2015,-0.148,0.462,0.999
11/10/2008,2.635,2.914,3.578
12/15/2015,-0.454,0.21,0.957
8/29/2016,-0.609,-0.333,0.129
3/23/2010,1.561,2.456,3.137
4/26/2012,1.155,1.432,1.822
5/4/2009,1.164,2.518,3.332
11/16/2009,0.634,2.556,3.294
6/9/2008,4.755,4.638,4.328
5/11/2010,1.279,2.17,2.837
7/16/2010,1.456,2.149,2.704
10/25/2013,1.059,1.763,2.349
2/24/2014,0.884,1.494,2.219
11/1/2010,1.391,2.258,2.804
6/4/2014,0.553,1.116,1.88
8/3/2009,1.041,2.7,3.397
8/25/2008,4.363,4.201,4.074
9/24/2012,0.722,1.048,1.548
10/31/2008,2.743,2.988,3.501
12/22/2014,0.026,0.171,1
6/29/2012,0.995,1.219,1.599
6/25/2013,1.158,1.77,2.27
12/19/2012,0.757,1.027,1.598
10/14/2016,-0.67,-0.289,0.287
12/4/2015,-0.395,0.253,0.951
12/11/2014,-0.002,0.154,1.004
4/5/2017,-0.592,-0.05,0.588
11/18/2010,1.517,2.354,2.951
4/1/2013,1.011,1.391,1.812
4/15/2013,0.946,1.301,1.663
7/18/2016,-0.632,-0.274,0.189
9/26/2014,0.163,0.576,1.495
7/25/2014,0.297,0.771,1.663
1/16/2014,1.049,1.694,2.381
9/9/2016,-0.594,-0.223,0.289
4/11/2011,2.367,3.124,3.433
10/10/2008,3.301,3.43,3.6
4/23/2010,1.501,2.401,3.103
7/26/2013,1.076,1.667,2.188
1/9/2018,-0.777,-0.122,0.776
4/29/2013,0.806,1.188,1.583
7/30/2015,-0.387,0.113,0.727
12/5/2013,0.945,1.708,2.39
4/21/2011,2.881,3.163,3.271
10/31/2011,1.316,1.56,1.942
7/21/2016,-0.633,-0.291,0.189
12/7/2015,-0.414,0.2,0.879
7/27/2015,-0.391,0.116,0.711
11/30/2009,0.534,2.407,3.191
3/30/2018,-0.469,0.101,0.688
4/28/2009,1.074,2.375,3.172
4/24/2015,-0.327,-0.005,0.357
5/1/2012,1.165,1.425,1.809
2/16/2010,1.661,2.667,3.328
10/9/2008,3.313,3.401,3.474
9/25/2014,0.163,0.578,1.5
4/22/2010,1.471,2.375,3.091
5/19/2011,2.627,2.808,2.951
6/25/2014,0.438,0.963,1.877
10/13/2017,-0.707,-0.063,0.864
5/9/2014,0.623,1.194,1.917
1/5/2018,-0.771,-0.119,0.755
4/4/2017,-0.59,-0.074,0.582
10/5/2012,0.673,0.977,1.524
7/23/2015,-0.385,0.148,0.763
11/9/2016,-0.726,-0.295,0.31
9/25/2009,0.83,2.692,3.39
10/2/2012,0.648,0.968,1.486
9/21/2011,1.153,1.409,1.764
12/9/2009,0.418,2.389,3.191
2/2/2015,-0.088,-0.061,0.586
2/9/2012,1.047,1.331,1.96
3/9/2011,2.267,3.166,3.447
4/4/2013,0.963,1.342,1.734
12/14/2009,1.777,2.448,3.259
5/21/2010,1.128,1.949,2.592
1/13/2016,-0.509,0.119,0.812
6/27/2012,0.94,1.184,1.568
3/21/2016,-0.635,-0.113,0.557
11/28/2013,0.855,1.55,2.226
10/6/2009,0.818,2.543,3.185
1/14/2009,1.364,2.136,2.686
10/28/2016,-0.731,-0.327,0.267
5/8/2013,0.805,1.314,1.763
12/21/2011,0.837,1.083,1.71
6/26/2012,0.861,1.103,1.498
7/26/2016,-0.647,-0.293,0.201
4/18/2012,1.161,1.477,1.832
12/4/2014,0.003,0.225,1.079
7/9/2013,1.044,1.607,2.187
11/29/2017,-0.859,-0.215,0.741
4/12/2017,-0.651,-0.094,0.566
2/27/2014,0.832,1.417,2.146
1/7/2015,0.029,0.107,0.867
1/6/2011,1.842,2.685,3.223
1/13/2010,1.638,2.342,3.272
2/24/2015,-0.239,0.145,0.674
6/1/2009,1.247,2.877,3.804
3/9/2015,-0.161,0.262,0.792
10/19/2009,0.824,2.612,3.272
5/8/2009,1.228,2.708,3.533
10/20/2016,-0.68,-0.326,0.216
6/17/2014,0.525,1.06,1.828
10/15/2009,0.826,2.607,3.282
12/7/2009,0.425,2.463,3.225
10/6/2016,-0.647,-0.292,0.276
9/2/2008,4.284,4.157,4.072
11/1/2016,-0.731,-0.316,0.288
4/27/2017,-0.644,-0.076,0.584
1/23/2018,-0.756,-0.02,0.867
5/2/2016,-0.581,-0.05,0.645
5/14/2015,-0.315,0.223,0.761
12/27/2012,0.755,0.991,1.567
12/2/2011,0.905,1.166,1.793
7/10/2013,1.059,1.617,2.193
8/5/2009,1.106,2.751,3.439
6/12/2009,1.324,2.792,3.621
8/18/2014,0.252,0.724,1.607
1/22/2015,0.01,0.053,0.757
10/1/2013,1.164,1.894,2.49
11/17/2014,-0.007,0.255,1.139
7/30/2014,0.29,0.778,1.691
10/3/2008,3.607,3.592,3.631
4/20/2012,1.135,1.439,1.804
11/25/2014,0.002,0.213,1.065
1/25/2013,0.992,1.291,1.854
10/13/2010,1.403,2.024,2.509
5/12/2009,1.263,2.73,3.531
2/28/2017,-0.661,-0.144,0.531
8/31/2015,-0.517,0.076,0.707
10/6/2014,0.143,0.555,1.453
12/29/2017,-0.766,-0.1,0.777
12/20/2013,1.059,1.715,2.436
2/28/2018,-0.447,0.19,0.812
6/3/2013,0.961,1.466,1.954
4/26/2016,-0.599,-0.032,0.693
7/26/2012,0.855,1.006,1.348
6/1/2015,-0.249,0.204,0.701
9/5/2008,4.193,4.009,3.86
11/18/2016,-0.679,-0.139,0.517
10/28/2015,-0.472,-0.05,0.556
6/28/2012,0.951,1.166,1.542
6/21/2011,2.336,2.598,2.874
7/21/2008,4.714,4.667,4.415
8/25/2009,1.004,2.764,3.448
10/12/2016,-0.677,-0.32,0.25
3/7/2017,-0.622,-0.04,0.648
12/29/2010,1.831,2.699,3.301
1/28/2013,1.026,1.353,1.912
12/18/2017,-0.812,-0.16,0.739
5/8/2012,1.069,1.281,1.665
7/24/2015,-0.392,0.122,0.72
6/25/2009,1.163,2.634,3.479
1/29/2015,-0.014,0.031,0.699
1/13/2017,-0.554,-0.015,0.628
1/9/2013,0.735,1.111,1.704
10/21/2010,1.53,2.262,2.72
7/10/2008,4.79,4.633,4.345
7/24/2008,4.649,4.612,4.405
11/25/2008,2.322,2.58,3.059
11/20/2009,0.574,2.479,3.277
6/19/2009,1.239,2.698,3.55
8/13/2012,0.922,1.052,1.421
1/8/2016,-0.507,0.157,0.854
12/26/2016,-0.62,-0.069,0.615
11/2/2011,1.215,1.437,1.792
2/15/2010,1.671,2.686,3.342
12/21/2016,-0.621,-0.037,0.664
11/11/2009,0.632,2.568,3.311
7/25/2011,2.132,2.466,2.763
2/6/2009,1.422,2.377,3.087
11/21/2011,0.99,1.274,1.676
6/18/2008,4.697,4.712,4.46
7/23/2013,1.096,1.628,2.147
8/30/2011,1.445,1.741,2.065
6/5/2012,0.71,0.87,1.13
7/23/2012,0.762,0.866,1.2
12/23/2014,0.022,0.162,0.971
8/21/2015,-0.52,-0.024,0.553
4/25/2017,-0.607,-0.015,0.657
10/26/2010,1.474,2.296,2.802
9/13/2017,-0.696,-0.067,0.812
11/21/2013,0.843,1.561,2.249
2/11/2015,-0.161,0.18,0.639
10/16/2008,3.244,3.405,3.683
4/18/2014,0.68,1.282,2.033
1/2/2014,1.086,1.788,2.51
12/14/2017,-0.83,-0.188,0.728
8/14/2013,1.17,1.776,2.327
2/5/2016,-0.562,-0.07,0.535
9/11/2014,0.181,0.582,1.51
8/7/2008,4.409,4.2,4.135
12/2/2009,0.519,2.403,3.209
5/27/2014,0.548,1.075,1.835
11/15/2017,-0.862,-0.194,0.747
10/28/2011,1.405,1.685,2.079
5/26/2009,1.275,2.828,3.641
6/25/2015,-0.247,0.408,1.038
9/30/2016,-0.673,-0.369,0.17
5/22/2013,0.819,1.287,1.807
3/31/2009,1.032,2.216,2.991
9/9/2008,4.22,4.004,3.859
11/1/2012,0.723,0.963,1.479
12/2/2016,-0.675,-0.106,0.559
7/5/2012,0.833,1.027,1.402
10/20/2017,-0.692,-0.047,0.874
10/9/2015,-0.451,0.056,0.701
6/13/2014,0.513,1.032,1.805
9/25/2008,3.974,3.976,3.977
2/9/2016,-0.579,-0.129,0.472
10/27/2017,-0.746,-0.109,0.83
8/13/2010,1.27,1.906,2.448
8/16/2013,1.189,1.83,2.393
6/20/2012,0.87,1.149,1.548
4/19/2010,1.534,2.464,3.165
3/19/2014,0.84,1.414,2.138
3/18/2009,1.119,2.167,2.948
9/29/2014,0.162,0.58,1.499
1/19/2009,1.407,2.188,2.76
8/11/2014,0.246,0.726,1.622
5/3/2012,1.106,1.326,1.712
12/22/2008,1.593,1.866,2.496
3/14/2017,-0.553,0.095,0.754
12/8/2015,-0.433,0.21,0.898
10/5/2017,-0.673,0.005,0.919
12/18/2013,0.794,1.65,2.405
12/9/2011,0.85,1.061,1.67
3/11/2015,-0.162,0.247,0.745
8/2/2013,1.041,1.639,2.16
4/21/2009,1.031,2.249,3.047
10/4/2017,-0.674,0.006,0.933
1/18/2016,-0.519,0.078,0.773
3/10/2017,-0.575,0.084,0.774
2/1/2011,2.007,3.024,3.419
2/21/2013,1.081,1.438,2.009
12/26/2008,1.537,1.816,2.445
2/8/2011,2.076,3.112,3.47
9/20/2010,1.419,2.143,2.652
6/27/2014,0.449,0.958,1.864
5/14/2009,1.209,2.674,3.483
8/30/2012,0.833,0.973,1.366
3/5/2010,1.608,2.519,3.188
3/23/2017,-0.555,0.032,0.688
5/23/2012,0.893,1.131,1.489
6/29/2015,-0.255,0.389,1.015
6/29/2016,-0.643,-0.245,0.311
5/2/2013,0.776,1.178,1.59
10/30/2013,1.005,1.65,2.257
11/12/2009,0.657,2.591,3.338
8/31/2010,1.291,1.789,2.233
4/10/2017,-0.636,-0.099,0.544
3/2/2010,1.532,2.455,3.137
2/26/2016,-0.623,-0.158,0.473
8/19/2016,-0.625,-0.33,0.146
1/5/2009,1.496,1.808,2.531
8/26/2008,4.288,4.148,4.06
7/27/2016,-0.646,-0.3,0.187
12/2/2008,1.992,2.215,2.707
7/2/2012,0.978,1.179,1.535
10/3/2014,0.151,0.564,1.472
9/1/2016,-0.633,-0.344,0.12
4/9/2012,1.177,1.481,1.861
12/12/2011,0.807,1.013,1.611
12/30/2014,0.024,0.132,0.926
1/26/2016,-0.521,0.013,0.682
5/25/2011,2.55,2.729,2.911
2/5/2009,1.387,2.33,3.021
2/20/2014,0.87,1.462,2.192
1/28/2015,0.003,0.062,0.721
9/28/2016,-0.673,-0.372,0.142
2/1/2013,1.046,1.4,2.003
12/25/2008,1.537,1.816,2.445
3/15/2018,-0.459,0.161,0.763
6/5/2017,-0.702,-0.177,0.432
11/10/2015,-0.436,0.126,0.82
10/24/2013,1.034,1.744,2.344
6/2/2011,2.549,2.712,2.909
3/23/2011,2.293,3.035,3.344
2/18/2010,1.692,2.677,3.334
8/9/2016,-0.65,-0.373,0.118
5/18/2010,1.202,2.006,2.677
7/20/2016,-0.628,-0.285,0.186
10/18/2010,1.501,2.16,2.65
3/8/2012,1.024,1.379,1.801
4/4/2014,0.755,1.386,2.11
11/5/2010,1.375,2.139,2.71
1/29/2018,-0.743,0.06,0.953
5/1/2009,1.086,2.431,3.25
1/20/2009,1.371,2.178,2.781
7/13/2011,2.071,2.392,2.699
11/26/2013,0.883,1.564,2.245
9/23/2008,4.021,3.973,3.949
3/4/2016,-0.606,-0.077,0.547
3/15/2013,1.113,1.355,1.951
8/16/2010,1.239,1.858,2.374
9/8/2017,-0.71,-0.117,0.734
8/12/2013,1.084,1.662,2.202
6/10/2015,-0.196,0.437,1.048
8/2/2012,0.931,1.008,1.314
9/12/2014,0.206,0.634,1.578
1/23/2012,0.973,1.231,1.83
5/7/2012,1.048,1.272,1.659
11/30/2011,0.849,1.161,1.796
5/25/2018,-0.548,-0.049,0.532
11/15/2010,1.443,2.278,2.896
8/30/2017,-0.675,-0.061,0.807
11/26/2008,2.264,2.487,2.93
1/16/2009,1.376,2.158,2.721
9/8/2015,-0.473,-0.01,0.631
2/7/2012,1.084,1.332,1.907
3/10/2014,0.897,1.488,2.191
4/29/2016,-0.597,-0.058,0.631
12/14/2011,0.803,1.01,1.55
9/15/2015,-0.445,0.09,0.775
12/16/2014,0.012,0.104,0.922
12/6/2010,1.602,2.454,3.08
9/9/2013,1.263,2.104,2.664
2/2/2010,1.636,2.298,3.176
9/19/2017,-0.697,-0.016,0.859
6/19/2013,1.031,1.529,2.016
12/8/2014,0.001,0.206,1.057
6/9/2015,-0.189,0.436,1.045
6/20/2013,1.108,1.677,2.156
2/27/2013,1.008,1.294,1.874
7/2/2009,0.961,2.518,3.352
12/4/2017,-0.81,-0.219,0.7
2/10/2011,2.06,3.1,3.485
9/28/2012,0.675,0.972,1.475
12/22/2011,0.858,1.102,1.729
1/4/2018,-0.769,-0.096,0.777
2/4/2014,0.966,1.537,2.219
5/23/2014,0.551,1.082,1.843
6/8/2010,1.215,1.905,2.446
2/17/2010,1.682,2.662,3.308
9/25/2013,1.15,1.855,2.455
7/11/2016,-0.643,-0.301,0.145
3/4/2015,-0.117,0.294,0.783
10/13/2015,-0.444,0.065,0.7
3/16/2012,1.199,1.665,2.114
5/29/2015,-0.266,0.189,0.662
8/4/2009,1.105,2.752,3.438
7/22/2015,-0.381,0.165,0.787
9/18/2012,0.773,1.1,1.596
6/30/2016,-0.623,-0.283,0.258
6/15/2012,0.852,1.107,1.51
11/1/2017,-0.776,-0.132,0.81
11/6/2012,0.733,0.951,1.452
8/15/2013,1.199,1.837,2.394
9/1/2015,-0.512,0.095,0.752
8/18/2008,4.291,4.168,4.075
10/29/2013,1.023,1.698,2.296
8/22/2014,0.242,0.708,1.56
1/13/2011,1.883,2.773,3.23
8/29/2013,1.274,1.976,2.476
9/27/2017,-0.661,0.031,0.937
10/27/2011,1.416,1.68,2.071
5/2/2012,1.098,1.332,1.715
3/29/2010,1.549,2.499,3.197
12/9/2014,-0.003,0.198,1.027
8/26/2014,0.213,0.647,1.485
6/2/2008,4.393,4.36,4.35
11/20/2013,0.833,1.535,2.204
12/19/2013,1.046,1.698,2.443
4/3/2017,-0.598,-0.055,0.601
7/17/2008,4.656,4.543,4.268
1/28/2009,1.518,2.425,3.026
5/5/2016,-0.605,-0.139,0.556
8/4/2010,1.42,2.151,2.694
11/14/2014,-0.015,0.25,1.134
10/20/2009,0.805,2.568,3.236
4/17/2013,0.863,1.234,1.611
10/25/2012,0.761,1.054,1.594
3/27/2013,1.028,1.409,1.827
11/10/2009,0.628,2.543,3.274
4/8/2010,1.528,2.475,3.176
10/24/2012,0.709,1.017,1.566
12/1/2009,0.522,2.394,3.201
11/9/2010,1.382,2.163,2.751
10/28/2008,2.746,2.964,3.394
8/27/2012,0.895,1.028,1.407
5/16/2008,4.158,4.131,4.171
2/16/2016,-0.61,-0.121,0.548
3/28/2014,0.777,1.407,2.126
10/4/2010,1.403,2.053,2.51
1/3/2014,1.064,1.77,2.499
10/20/2015,-0.433,0.095,0.738
12/5/2012,0.693,0.935,1.466
5/21/2008,4.25,4.221,4.224
7/7/2011,2.348,2.646,2.913
10/11/2013,1.06,1.834,2.482
10/10/2011,1.319,1.576,1.935
3/27/2014,0.758,1.382,2.109
5/9/2011,2.581,2.887,3.064
5/19/2008,4.186,4.172,4.218
11/12/2010,1.416,2.211,2.829
5/10/2016,-0.601,-0.176,0.515
11/28/2017,-0.858,-0.249,0.699
8/6/2013,1.066,1.664,2.191
6/24/2014,0.468,1.009,1.935
1/15/2009,1.336,2.092,2.636
11/29/2016,-0.711,-0.178,0.498
4/19/2016,-0.612,-0.108,0.532
1/6/2015,0.021,0.125,0.909
10/23/2017,-0.701,-0.055,0.859
11/23/2009,0.581,2.505,3.275
7/7/2010,1.398,2.073,2.634
12/13/2013,0.833,1.616,2.336
5/2/2018,-0.539,0.08,0.708
4/13/2018,-0.518,0.065,0.667
1/16/2012,0.838,0.998,1.598
